{
  "areacella": {
    "CCCma TS var name": "DATA_DESCRIPTION",
    "CCCma diag file": "gp",
    "CCCma optional deck": "areacella",
    "CCCma comment": "Use =mkwght=; afrac*4*Pi*R^2",
    "MIPs (requesting)": "  AerChemMIP(1,1,1), CFMIP(1,1,1,1,1), CMIP(1,1,1,1,1,1), DCPP(1), LS3MIP(1), PAMIP(1), PMIP(1,1,1,1,1)",
    "experiments": "  abrupt-4xCO2 (CFMIP:1,CMIP:1,CMIP:1,PMIP:1), amip (AerChemMIP:1,CFMIP:1,CMIP:1,PMIP:1), 1pctCO2 (CFMIP:1,CMIP:1,PMIP:1), historical (AerChemMIP:1,CFMIP:1,CMIP:1,DCPP:1,LS3MIP:1,PAMIP:1,PMIP:1), piControl (AerChemMIP:1,CFMIP:1,CMIP:1,PMIP:1)"
  },
  "areacellr": {
    "CCCma TS var name": null,
    "CCCma diag file": null,
    "MIPs (requesting)": "  CMIP(1,1,1,1,1,1), DCPP(1), PAMIP(1), PMIP(1,1,1,1,1)",
    "experiments": "  abrupt-4xCO2 (CMIP:1,CMIP:1,PMIP:1), amip (CMIP:1,PMIP:1), 1pctCO2 (CMIP:1,PMIP:1), historical (CMIP:1,DCPP:1,PAMIP:1,PMIP:1), piControl (CMIP:1,PMIP:1)"
  },
  "mrsofc": {
    "CCCma TS var name": "DATA_DESCRIPTION",
    "CCCma diag file": "gp",
    "CCCma optional deck": "soilstore",
    "CCCma comment": "sum(DZ*PORG)",
    "MIPs (requesting)": "  CMIP(1,1,1,1,1,1), DCPP(1), LS3MIP(1), PAMIP(1), PMIP(1,1,1,1,1)",
    "experiments": "  abrupt-4xCO2 (CMIP:1,CMIP:1,PMIP:1), amip (CMIP:1,PMIP:1), 1pctCO2 (CMIP:1,PMIP:1), historical (CMIP:1,DCPP:1,LS3MIP:1,PAMIP:1,PMIP:1), piControl (CMIP:1,PMIP:1)"
  },
  "orog": {
    "CCCma TS var name": "PHIS DATA_DESCRIPTION",
    "CCCma diag file": "gp",
    "CCCma optional deck": "orog",
    "CCCma comment": "PHIS/9.80616",
    "MIPs (requesting)": "  AerChemMIP(1,1,1), CFMIP(1,1,1,1,1), CMIP(1,1,1,1,1,1), DCPP(1), LS3MIP(1), PAMIP(1), PMIP(1,1,1,1,1)",
    "experiments": "  abrupt-4xCO2 (CFMIP:1,CMIP:1,CMIP:1,PMIP:1), amip (AerChemMIP:1,CFMIP:1,CMIP:1,PMIP:1), 1pctCO2 (CFMIP:1,CMIP:1,PMIP:1), historical (AerChemMIP:1,CFMIP:1,CMIP:1,DCPP:1,LS3MIP:1,PAMIP:1,PMIP:1), piControl (AerChemMIP:1,CFMIP:1,CMIP:1,PMIP:1)"
  },
  "rootd": {
    "CCCma TS var name": "DATA_DESCRIPTION",
    "CCCma diag file": null,
    "CCCma check": "Need ROOT in AN file",
    "CCCma comment": "max(ROOT)",
    "CCCma NetCDF comment": "Max. rooting depth is tricky to derive given CTEM's dynamic vegetation. So let's not output this variable. Vivek. 8 Mar, 2019.",
    "MIPs (requesting)": "  CMIP(1,1,1,1,1,1), DCPP(1), LS3MIP(1), PAMIP(1), PMIP(1,1,1,1,1)",
    "experiments": "  abrupt-4xCO2 (CMIP:1,CMIP:1,PMIP:1), amip (CMIP:1,PMIP:1), 1pctCO2 (CMIP:1,PMIP:1), historical (CMIP:1,DCPP:1,LS3MIP:1,PAMIP:1,PMIP:1), piControl (CMIP:1,PMIP:1)"
  },
  "sftgif": {
    "CCCma TS var name": "DATA_DESCRIPTION",
    "CCCma diag file": "gp",
    "CCCma optional deck": "glacier",
    "CCCma comment": "(DPTH=-4)*FLND*100",
    "MIPs (requesting)": "  CMIP(1,1,1,1,1,1), DCPP(1), ISMIP6(1,1,1,1), LS3MIP(1), PAMIP(1), PMIP(1,1,1,1,1)",
    "experiments": "  abrupt-4xCO2 (CMIP:1,CMIP:1,PMIP:1), amip (CMIP:1,ISMIP6:1,PMIP:1), 1pctCO2 (CMIP:1,ISMIP6:1,PMIP:1), historical (CMIP:1,DCPP:1,ISMIP6:1,LS3MIP:1,PAMIP:1,PMIP:1), piControl (CMIP:1,ISMIP6:1,PMIP:1)"
  },
  "sftlf": {
    "CCCma TS var name": "DATA_DESCRIPTION",
    "CCCma diag file": "gp",
    "CCCma optional deck": "landfrac",
    "CCCma check": "FLND+FLKU",
    "CCCma comment": "(FLND+FLKU)*100",
    "MIPs (requesting)": "  AerChemMIP(1,1,1), CFMIP(1,1,1,1,1), CMIP(1,1,1,1,1,1), DCPP(1), PAMIP(1), PMIP(1,1,1,1,1)",
    "experiments": "  abrupt-4xCO2 (CFMIP:1,CMIP:1,CMIP:1,PMIP:1), amip (AerChemMIP:1,CFMIP:1,CMIP:1,PMIP:1), 1pctCO2 (CFMIP:1,CMIP:1,PMIP:1), historical (AerChemMIP:1,CFMIP:1,CMIP:1,DCPP:1,PAMIP:1,PMIP:1), piControl (AerChemMIP:1,CFMIP:1,CMIP:1,PMIP:1)"
  },
  "zfull": {
    "CCCma TS var name": null,
    "CCCma diag file": null,
    "MIPs (requesting)": "  CFMIP(1,1,1,1,1), CMIP(1,1,1,1,1)",
    "experiments": "  abrupt-4xCO2 (CFMIP:1,CMIP:1), amip (CFMIP:1,CMIP:1), 1pctCO2 (CFMIP:1,CMIP:1), historical (CFMIP:1,CMIP:1), piControl (CFMIP:1,CMIP:1)"
  }
}