{
  "acabf": {
    "CCCma TS var name": "",
    "CCCma diag file": ""
  },
  "hfgeoubed": {
    "CCCma TS var name": "",
    "CCCma diag file": ""
  },
  "iareafl": {
    "CCCma TS var name": "",
    "CCCma diag file": ""
  },
  "iareagr": {
    "CCCma TS var name": "",
    "CCCma diag file": ""
  },
  "libmassbffl": {
    "CCCma TS var name": "",
    "CCCma diag file": ""
  },
  "libmassbfgr": {
    "CCCma TS var name": "",
    "CCCma diag file": ""
  },
  "licalvf": {
    "CCCma TS var name": "",
    "CCCma diag file": ""
  },
  "lifmassbf": {
    "CCCma TS var name": "",
    "CCCma diag file": ""
  },
  "lim": {
    "CCCma TS var name": "",
    "CCCma diag file": ""
  },
  "limnsw": {
    "CCCma TS var name": "",
    "CCCma diag file": ""
  },
  "litempbotfl": {
    "CCCma TS var name": "",
    "CCCma diag file": ""
  },
  "litempbotgr": {
    "CCCma TS var name": "",
    "CCCma diag file": ""
  },
  "litemptop": {
    "CCCma TS var name": "",
    "CCCma diag file": ""
  },
  "lithk": {
    "CCCma TS var name": "",
    "CCCma diag file": ""
  },
  "modelCellAreai": {
    "CCCma TS var name": "",
    "CCCma diag file": ""
  },
  "orog": {
    "CCCma TS var name": "",
    "CCCma diag file": ""
  },
  "sftflf": {
    "CCCma TS var name": "",
    "CCCma diag file": ""
  },
  "sftgif": {
    "CCCma TS var name": "",
    "CCCma diag file": ""
  },
  "sftgrf": {
    "CCCma TS var name": "",
    "CCCma diag file": ""
  },
  "snc": {
    "CCCma TS var name": "",
    "CCCma diag file": ""
  },
  "strbasemag": {
    "CCCma TS var name": "",
    "CCCma diag file": ""
  },
  "tendacabf": {
    "CCCma TS var name": "",
    "CCCma diag file": ""
  },
  "tendlibmassbf": {
    "CCCma TS var name": "",
    "CCCma diag file": ""
  },
  "tendlicalvf": {
    "CCCma TS var name": "",
    "CCCma diag file": ""
  },
  "topg": {
    "CCCma TS var name": "",
    "CCCma diag file": ""
  },
  "xvelbase": {
    "CCCma TS var name": "",
    "CCCma diag file": ""
  },
  "xvelmean": {
    "CCCma TS var name": "",
    "CCCma diag file": ""
  },
  "xvelsurf": {
    "CCCma TS var name": "",
    "CCCma diag file": ""
  },
  "yvelbase": {
    "CCCma TS var name": "",
    "CCCma diag file": ""
  },
  "yvelmean": {
    "CCCma TS var name": "",
    "CCCma diag file": ""
  },
  "yvelsurf": {
    "CCCma TS var name": "",
    "CCCma diag file": ""
  },
  "zvelbase": {
    "CCCma TS var name": "",
    "CCCma diag file": ""
  },
  "zvelsurf": {
    "CCCma TS var name": "",
    "CCCma diag file": ""
  }
}