{
  "acabf": {
    "CCCma TS var name": null,
    "CCCma diag file": null,
    "priority": 2.0,
    "MIPs (requesting)": "  ISMIP6(2,2,2,2)",
    "experiments": "  amip (ISMIP6:2), 1pctCO2 (ISMIP6:2), historical (ISMIP6:2), piControl (ISMIP6:2)"
  },
  "hfls": {
    "CCCma TS var name": null,
    "CCCma diag file": null,
    "MIPs (requesting)": "  ISMIP6(1,1,1,1)",
    "experiments": "  amip (ISMIP6:1), 1pctCO2 (ISMIP6:1), historical (ISMIP6:1), piControl (ISMIP6:1)"
  },
  "hfss": {
    "CCCma TS var name": null,
    "CCCma diag file": null,
    "MIPs (requesting)": "  ISMIP6(1,1,1,1)",
    "experiments": "  amip (ISMIP6:1), 1pctCO2 (ISMIP6:1), historical (ISMIP6:1), piControl (ISMIP6:1)"
  },
  "icem": {
    "CCCma TS var name": null,
    "CCCma diag file": null,
    "priority": 3.0,
    "MIPs (requesting)": "  ISMIP6(3,3,3,3)",
    "experiments": "  amip (ISMIP6:3), 1pctCO2 (ISMIP6:3), historical (ISMIP6:3), piControl (ISMIP6:3)"
  },
  "libmassbffl": {
    "CCCma TS var name": null,
    "CCCma diag file": null,
    "priority": 2.0,
    "MIPs (requesting)": "  ISMIP6(2,2,2,2)",
    "experiments": "  amip (ISMIP6:2), 1pctCO2 (ISMIP6:2), historical (ISMIP6:2), piControl (ISMIP6:2)"
  },
  "libmassbfgr": {
    "CCCma TS var name": null,
    "CCCma diag file": null,
    "priority": 2.0,
    "MIPs (requesting)": "  ISMIP6(2,2,2,2)",
    "experiments": "  amip (ISMIP6:2), 1pctCO2 (ISMIP6:2), historical (ISMIP6:2), piControl (ISMIP6:2)"
  },
  "licalvf": {
    "CCCma TS var name": null,
    "CCCma diag file": null,
    "priority": 3.0,
    "MIPs (requesting)": "  ISMIP6(3,3,3,3)",
    "experiments": "  amip (ISMIP6:3), 1pctCO2 (ISMIP6:3), historical (ISMIP6:3), piControl (ISMIP6:3)"
  },
  "lifmassbf": {
    "CCCma TS var name": null,
    "CCCma diag file": null,
    "priority": 3.0,
    "MIPs (requesting)": "  ISMIP6(3,3,3,3)",
    "experiments": "  amip (ISMIP6:3), 1pctCO2 (ISMIP6:3), historical (ISMIP6:3), piControl (ISMIP6:3)"
  },
  "litempbotfl": {
    "CCCma TS var name": null,
    "CCCma diag file": null,
    "priority": 2.0,
    "MIPs (requesting)": "  ISMIP6(2,2,2,2)",
    "experiments": "  amip (ISMIP6:2), 1pctCO2 (ISMIP6:2), historical (ISMIP6:2), piControl (ISMIP6:2)"
  },
  "litempbotgr": {
    "CCCma TS var name": null,
    "CCCma diag file": null,
    "priority": 2.0,
    "MIPs (requesting)": "  ISMIP6(2,2,2,2)",
    "experiments": "  amip (ISMIP6:2), 1pctCO2 (ISMIP6:2), historical (ISMIP6:2), piControl (ISMIP6:2)"
  },
  "litemptop": {
    "CCCma TS var name": null,
    "CCCma diag file": null,
    "priority": 2.0,
    "MIPs (requesting)": "  ISMIP6(2,2,2,2)",
    "experiments": "  amip (ISMIP6:2), 1pctCO2 (ISMIP6:2), historical (ISMIP6:2), piControl (ISMIP6:2)"
  },
  "mrroLi": {
    "CCCma TS var name": null,
    "CCCma diag file": null,
    "MIPs (requesting)": "  ISMIP6(1,1,1,1)",
    "experiments": "  amip (ISMIP6:1), 1pctCO2 (ISMIP6:1), historical (ISMIP6:1), piControl (ISMIP6:1)"
  },
  "orog": {
    "CCCma TS var name": null,
    "CCCma diag file": null,
    "MIPs (requesting)": "  ISMIP6(1,1,1,1)",
    "experiments": "  amip (ISMIP6:1), 1pctCO2 (ISMIP6:1), historical (ISMIP6:1), piControl (ISMIP6:1)"
  },
  "prra": {
    "CCCma TS var name": null,
    "CCCma diag file": null,
    "priority": 2.0,
    "MIPs (requesting)": "  ISMIP6(2,2,2,2)",
    "experiments": "  amip (ISMIP6:2), 1pctCO2 (ISMIP6:2), historical (ISMIP6:2), piControl (ISMIP6:2)"
  },
  "prsn": {
    "CCCma TS var name": null,
    "CCCma diag file": null,
    "MIPs (requesting)": "  ISMIP6(1,1,1,1)",
    "experiments": "  amip (ISMIP6:1), 1pctCO2 (ISMIP6:1), historical (ISMIP6:1), piControl (ISMIP6:1)"
  },
  "rlds": {
    "CCCma TS var name": null,
    "CCCma diag file": null,
    "MIPs (requesting)": "  ISMIP6(1,1,1,1)",
    "experiments": "  amip (ISMIP6:1), 1pctCO2 (ISMIP6:1), historical (ISMIP6:1), piControl (ISMIP6:1)"
  },
  "rlus": {
    "CCCma TS var name": null,
    "CCCma diag file": null,
    "MIPs (requesting)": "  ISMIP6(1,1,1,1)",
    "experiments": "  amip (ISMIP6:1), 1pctCO2 (ISMIP6:1), historical (ISMIP6:1), piControl (ISMIP6:1)"
  },
  "rsds": {
    "CCCma TS var name": null,
    "CCCma diag file": null,
    "MIPs (requesting)": "  ISMIP6(1,1,1,1)",
    "experiments": "  amip (ISMIP6:1), 1pctCO2 (ISMIP6:1), historical (ISMIP6:1), piControl (ISMIP6:1)"
  },
  "rsus": {
    "CCCma TS var name": null,
    "CCCma diag file": null,
    "MIPs (requesting)": "  ISMIP6(1,1,1,1)",
    "experiments": "  amip (ISMIP6:1), 1pctCO2 (ISMIP6:1), historical (ISMIP6:1), piControl (ISMIP6:1)"
  },
  "sbl": {
    "CCCma TS var name": null,
    "CCCma diag file": null,
    "MIPs (requesting)": "  ISMIP6(1,1,1,1)",
    "experiments": "  amip (ISMIP6:1), 1pctCO2 (ISMIP6:1), historical (ISMIP6:1), piControl (ISMIP6:1)"
  },
  "snc": {
    "CCCma TS var name": null,
    "CCCma diag file": null,
    "MIPs (requesting)": "  ISMIP6(1,1,1,1)",
    "experiments": "  amip (ISMIP6:1), 1pctCO2 (ISMIP6:1), historical (ISMIP6:1), piControl (ISMIP6:1)"
  },
  "snicefreez": {
    "CCCma TS var name": null,
    "CCCma diag file": null,
    "priority": 2.0,
    "MIPs (requesting)": "  ISMIP6(2,2,2,2)",
    "experiments": "  amip (ISMIP6:2), 1pctCO2 (ISMIP6:2), historical (ISMIP6:2), piControl (ISMIP6:2)"
  },
  "snicem": {
    "CCCma TS var name": null,
    "CCCma diag file": null,
    "priority": 2.0,
    "MIPs (requesting)": "  ISMIP6(2,2,2,2)",
    "experiments": "  amip (ISMIP6:2), 1pctCO2 (ISMIP6:2), historical (ISMIP6:2), piControl (ISMIP6:2)"
  },
  "snm": {
    "CCCma TS var name": null,
    "CCCma diag file": null,
    "MIPs (requesting)": "  ISMIP6(1,1,1,1)",
    "experiments": "  amip (ISMIP6:1), 1pctCO2 (ISMIP6:1), historical (ISMIP6:1), piControl (ISMIP6:1)"
  },
  "tas": {
    "CCCma TS var name": null,
    "CCCma diag file": null,
    "MIPs (requesting)": "  ISMIP6(1,1,1,1)",
    "experiments": "  amip (ISMIP6:1), 1pctCO2 (ISMIP6:1), historical (ISMIP6:1), piControl (ISMIP6:1)"
  },
  "ts": {
    "CCCma TS var name": null,
    "CCCma diag file": null,
    "MIPs (requesting)": "  ISMIP6(1,1,1,1)",
    "experiments": "  amip (ISMIP6:1), 1pctCO2 (ISMIP6:1), historical (ISMIP6:1), piControl (ISMIP6:1)"
  },
  "tsn": {
    "CCCma TS var name": null,
    "CCCma diag file": null,
    "MIPs (requesting)": "  ISMIP6(1,1,1,1)",
    "experiments": "  amip (ISMIP6:1), 1pctCO2 (ISMIP6:1), historical (ISMIP6:1), piControl (ISMIP6:1)"
  }
}