{
  "baresoilFrac": {
    "CCCma TS var name": "BRFR",
    "CCCma diag file": "tp",
    "CCCma optional deck": "mo2yr",
    "CCCma units": "fraction per unit land area",
    "CCCma hist file": "_tm",
    "CCCma hist var names": "BRFR",
    "CCCma hist var frequency": "daily",
    "CCCma check": "Done. Vivek put in _tm file.",
    "MIPs (requesting)": "  CMIP(1,1,1,1,1), DCPP(2), PAMIP(2)",
    "experiments": "  abrupt-4xCO2 (CMIP:1), amip (CMIP:1), 1pctCO2 (CMIP:1), historical (CMIP:1,DCPP:2,PAMIP:2), piControl (CMIP:1)"
  },
  "cLitter": {
    "CCCma TS var name": "CDEB",
    "CCCma diag file": "tp",
    "CCCma optional deck": "mo2yr",
    "MIPs (requesting)": "  LUMIP(1)",
    "experiments": "  historical (LUMIP:1)"
  },
  "cLitterLut": {
    "CCCma TS var name": null,
    "CCCma diag file": null,
    "CCCma check": "Vivek says - not providing",
    "MIPs (requesting)": "  LUMIP(1)",
    "experiments": "  historical (LUMIP:1)"
  },
  "cProduct": {
    "CCCma TS var name": null,
    "CCCma diag file": null,
    "CCCma check": "Vivek says - not providing",
    "MIPs (requesting)": "  LUMIP(1)",
    "experiments": "  historical (LUMIP:1)"
  },
  "cProductLut": {
    "CCCma TS var name": null,
    "CCCma diag file": null,
    "CCCma check": "Vivek says - not providing",
    "MIPs (requesting)": "  LUMIP(1)",
    "experiments": "  historical (LUMIP:1)"
  },
  "cropFrac": {
    "CCCma TS var name": "CRPF",
    "CCCma diag file": "tp",
    "CCCma optional deck": "mo2yr",
    "CCCma units": "fraction per unit land area",
    "CCCma hist file": "_tm",
    "CCCma hist var names": "CRPF",
    "CCCma hist var frequency": "daily",
    "CCCma check": "Done. Vivek put in _tm file.",
    "MIPs (requesting)": "  CMIP(1,1,1,1,1), DCPP(2), PAMIP(2)",
    "experiments": "  abrupt-4xCO2 (CMIP:1), amip (CMIP:1), 1pctCO2 (CMIP:1), historical (CMIP:1,DCPP:2,PAMIP:2), piControl (CMIP:1)"
  },
  "cSoil": {
    "CCCma TS var name": "CHUM",
    "CCCma diag file": "tp",
    "CCCma optional deck": "mo2yr",
    "MIPs (requesting)": "  LUMIP(1)",
    "experiments": "  historical (LUMIP:1)"
  },
  "cSoilLut": {
    "CCCma TS var name": null,
    "CCCma diag file": null,
    "CCCma check": "Vivek says - not providing",
    "MIPs (requesting)": "  LUMIP(1)",
    "experiments": "  historical (LUMIP:1)"
  },
  "cVeg": {
    "CCCma TS var name": "CVEG",
    "CCCma diag file": "tp",
    "CCCma optional deck": "mo2yr",
    "MIPs (requesting)": "  LUMIP(1)",
    "experiments": "  historical (LUMIP:1)"
  },
  "cVegLut": {
    "CCCma TS var name": null,
    "CCCma diag file": null,
    "CCCma check": "Vivek says - not providing",
    "MIPs (requesting)": "  LUMIP(1)",
    "experiments": "  historical (LUMIP:1)"
  },
  "fracInLut": {
    "CCCma TS var name": null,
    "CCCma diag file": null,
    "CCCma check": "Vivek says - not providing",
    "MIPs (requesting)": "  CMIP(1,1,1,1,1), LUMIP(1)",
    "experiments": "  abrupt-4xCO2 (CMIP:1), amip (CMIP:1), 1pctCO2 (CMIP:1), historical (CMIP:1,LUMIP:1), piControl (CMIP:1)"
  },
  "fracLut": {
    "CCCma TS var name": null,
    "CCCma diag file": null,
    "CCCma check": "Vivek says - not providing",
    "MIPs (requesting)": "  CMIP(1,1,1,1,1), LUMIP(1)",
    "experiments": "  abrupt-4xCO2 (CMIP:1), amip (CMIP:1), 1pctCO2 (CMIP:1), historical (CMIP:1,LUMIP:1), piControl (CMIP:1)"
  },
  "fracOutLut": {
    "CCCma TS var name": null,
    "CCCma diag file": null,
    "CCCma check": "Vivek says - not providing",
    "MIPs (requesting)": "  CMIP(1,1,1,1,1), LUMIP(1)",
    "experiments": "  abrupt-4xCO2 (CMIP:1), amip (CMIP:1), 1pctCO2 (CMIP:1), historical (CMIP:1,LUMIP:1), piControl (CMIP:1)"
  },
  "grassFrac": {
    "CCCma TS var name": "GRSF",
    "CCCma diag file": "tp",
    "CCCma optional deck": "mo2yr",
    "CCCma units": "fraction per unit land area",
    "CCCma hist file": "_tm",
    "CCCma hist var names": "GRSF",
    "CCCma hist var frequency": "daily",
    "CCCma check": "Done. Vivek put in _tm file.",
    "MIPs (requesting)": "  CMIP(1,1,1,1,1), DCPP(2), PAMIP(2)",
    "experiments": "  abrupt-4xCO2 (CMIP:1), amip (CMIP:1), 1pctCO2 (CMIP:1), historical (CMIP:1,DCPP:2,PAMIP:2), piControl (CMIP:1)"
  },
  "residualFrac": {
    "CCCma TS var name": null,
    "CCCma diag file": null,
    "priority": 2.0,
    "MIPs (requesting)": "  DCPP(2), PAMIP(2)",
    "experiments": "  historical (DCPP:2,PAMIP:2)"
  },
  "shrubFrac": {
    "CCCma TS var name": null,
    "CCCma diag file": null,
    "CCCma check": "Vivek says - not providing",
    "MIPs (requesting)": "  CMIP(1,1,1,1,1), DCPP(2), PAMIP(2)",
    "experiments": "  abrupt-4xCO2 (CMIP:1), amip (CMIP:1), 1pctCO2 (CMIP:1), historical (CMIP:1,DCPP:2,PAMIP:2), piControl (CMIP:1)"
  },
  "treeFrac": {
    "CCCma TS var name": "TREE",
    "CCCma diag file": "tp",
    "CCCma optional deck": "mo2yr",
    "CCCma units": "fraction per unit land area",
    "CCCma hist file": "_tm",
    "CCCma hist var names": "TREE",
    "CCCma hist var frequency": "daily",
    "CCCma check": "Done. Vivek put in _tm file.",
    "MIPs (requesting)": "  CMIP(1,1,1,1,1), DCPP(2), PAMIP(2)",
    "experiments": "  abrupt-4xCO2 (CMIP:1), amip (CMIP:1), 1pctCO2 (CMIP:1), historical (CMIP:1,DCPP:2,PAMIP:2), piControl (CMIP:1)"
  },
  "vegFrac": {
    "CCCma TS var name": "VEGF",
    "CCCma diag file": "tp",
    "CCCma optional deck": "mo2yr",
    "CCCma units": "fraction per unit land area",
    "CCCma hist file": "_tm",
    "CCCma hist var names": "VEGF",
    "CCCma hist var frequency": "daily",
    "CCCma check": "Done. Vivek put in _tm file.",
    "MIPs (requesting)": "  CMIP(1,1,1,1,1), DCPP(2), PAMIP(2)",
    "experiments": "  abrupt-4xCO2 (CMIP:1), amip (CMIP:1), 1pctCO2 (CMIP:1), historical (CMIP:1,DCPP:2,PAMIP:2), piControl (CMIP:1)"
  },
  "zfullo": {
    "CCCma TS var name": null,
    "CCCma diag file": null,
    "CCCma check": "Vivek has no idea what this variable means.",
    "MIPs (requesting)": "  C4MIP(1,1,1,1,1), DCPP(1), LUMIP(1), PAMIP(1)",
    "experiments": "  abrupt-4xCO2 (C4MIP:1), amip (C4MIP:1), 1pctCO2 (C4MIP:1), historical (C4MIP:1,DCPP:1,LUMIP:1,PAMIP:1), piControl (C4MIP:1)"
  }
}