{
  "bldep": {
    "CCCma TS var name": null,
    "CCCma diag file": null,
    "CCCma check": "Accumulate instead of sample PBLH.",
    "MIPs (requesting)": "  VIACSAB(1,1,2)",
    "experiments": "  historical (VIACSAB:1,VIACSAB:1,VIACSAB:2)"
  },
  "hurs": {
    "CCCma TS var name": null,
    "CCCma diag file": null,
    "CCCma check": "Currently saved at ISRAD. Would require new variable and new logic in PHYSICI.",
    "MIPs (requesting)": "  VIACSAB(1,1)",
    "experiments": "  historical (VIACSAB:1,VIACSAB:1)"
  },
  "hus4": {
    "CCCma TS var name": "SHUM",
    "CCCma diag file": "6h",
    "CCCma units": "-",
    "CCCma hist var names": "SHUM",
    "CCCma check": "Done.",
    "MIPs (requesting)": "  HighResMIP(1,1,1)",
    "experiments": "  piControl (HighResMIP:1), historical (HighResMIP:1), amip (HighResMIP:1)"
  },
  "pr": {
    "CCCma TS var name": null,
    "CCCma diag file": null,
    "CCCma hist file": "gs",
    "CCCma hist var names": "PCP",
    "CCCma hist var frequency": "3h",
    "CCCma check": "Currently saved at ISRAD. Would require new variable and new logic in PHYSICI.",
    "CCCma NetCDF comment": "available 3-hourly",
    "priority": 2.0,
    "MIPs (requesting)": "  DCPP(2), PAMIP(2)",
    "experiments": "  historical (DCPP:2,PAMIP:2)"
  },
  "prhmax": {
    "CCCma TS var name": null,
    "CCCma diag file": null,
    "CCCma check": "Would require new variable and new logic in PHYSICI",
    "priority": 3.0,
    "MIPs (requesting)": "  DCPP(3), PAMIP(3)",
    "experiments": "  historical (DCPP:3,PAMIP:3)"
  },
  "psl": {
    "CCCma TS var name": "PMSL",
    "CCCma diag file": null,
    "CCCma optional deck": "mltby100",
    "CCCma hist file": "gs",
    "CCCma hist var names": "LNSP PHIS TEMP",
    "CCCma hist var frequency": "6h",
    "CCCma check": "Done.",
    "CCCma comment": "PMSL*100",
    "MIPs (requesting)": "  DCPP(2), PAMIP(2), VIACSAB(1,1,1,2,2,2,2)",
    "experiments": "  piControl (VIACSAB:1,VIACSAB:2), historical (VIACSAB:1,DCPP:2,PAMIP:2,VIACSAB:2,VIACSAB:2), amip (VIACSAB:1,VIACSAB:2)"
  },
  "rv850": {
    "CCCma TS var name": null,
    "CCCma diag file": null,
    "CCCma check": "Same as \"6hrPlevPt\"? Also, relative vs absolute?",
    "MIPs (requesting)": "  DCPP(3), PAMIP(3), VIACSAB(1,1)",
    "experiments": "  historical (VIACSAB:1,VIACSAB:1,DCPP:3,PAMIP:3)"
  },
  "sfcWind": {
    "CCCma TS var name": null,
    "CCCma diag file": null,
    "CCCma check": "Currently saved every day. Would require new variable and new logic in PHYSICI.",
    "priority": 3.0,
    "MIPs (requesting)": "  DCPP(3), PAMIP(3)",
    "experiments": "  historical (DCPP:3,PAMIP:3)"
  },
  "tas": {
    "CCCma TS var name": null,
    "CCCma diag file": null,
    "CCCma hist var frequency": "3h",
    "CCCma check": "Currently saved at ISRAD. Would require new variable and new logic in PHYSICI.",
    "CCCma NetCDF comment": "available 3-hourly",
    "MIPs (requesting)": "  DCPP(2), PAMIP(2), VIACSAB(1,1,1)",
    "experiments": "  piControl (VIACSAB:1), historical (VIACSAB:1,DCPP:2,PAMIP:2), amip (VIACSAB:1)"
  },
  "ua100m": {
    "CCCma TS var name": null,
    "CCCma diag file": null,
    "CCCma check": "Do we use the 990 mb pressure levels as a proxy? This won't work for the majority of grid points above 100 m though?",
    "MIPs (requesting)": "  VIACSAB(1,1)",
    "experiments": "  historical (VIACSAB:1,VIACSAB:1)"
  },
  "uas": {
    "CCCma TS var name": null,
    "CCCma diag file": null,
    "CCCma hist var frequency": "3h",
    "CCCma check": "Currently saved at ISRAD. Would require new variable and new logic in PHYSICI.",
    "CCCma NetCDF comment": "available 3-hourly",
    "MIPs (requesting)": "  DCPP(2), PAMIP(2), VIACSAB(1,1,1)",
    "experiments": "  piControl (VIACSAB:1), historical (VIACSAB:1,DCPP:2,PAMIP:2), amip (VIACSAB:1)"
  },
  "va100m": {
    "CCCma TS var name": null,
    "CCCma diag file": null,
    "CCCma check": "See comment for ua100m.",
    "MIPs (requesting)": "  VIACSAB(1,1)",
    "experiments": "  historical (VIACSAB:1,VIACSAB:1)"
  },
  "vas": {
    "CCCma TS var name": null,
    "CCCma diag file": null,
    "CCCma hist var frequency": "3h",
    "CCCma check": "Currently saved at ISRAD. Would require new variable and new logic in PHYSICI.",
    "CCCma NetCDF comment": "available 3-hourly",
    "MIPs (requesting)": "  DCPP(2), PAMIP(2), VIACSAB(1,1,1)",
    "experiments": "  piControl (VIACSAB:1), historical (VIACSAB:1,DCPP:2,PAMIP:2), amip (VIACSAB:1)"
  },
  "wap4": {
    "CCCma TS var name": "OMEG",
    "CCCma diag file": "6h",
    "CCCma units": "Pa s-1",
    "CCCma check": "Done.",
    "MIPs (requesting)": "  HighResMIP(1,1,1), VIACSAB(1)",
    "experiments": "  piControl (HighResMIP:1), historical (HighResMIP:1,VIACSAB:1), amip (HighResMIP:1)"
  },
  "wsgmax100m": {
    "CCCma TS var name": null,
    "CCCma diag file": null,
    "CCCma check": "This would be hard to generate. The model levels don't line up and we need to do on the physics grid to do the calculation of the maximum.",
    "MIPs (requesting)": "  VIACSAB(1,1)",
    "experiments": "  historical (VIACSAB:1,VIACSAB:1)"
  },
  "wsgmax10m": {
    "CCCma TS var name": null,
    "CCCma diag file": null,
    "CCCma check": "Currently saved every day. Would require new variable and new logic in PHYSICI.",
    "MIPs (requesting)": "  VIACSAB(1,1)",
    "experiments": "  historical (VIACSAB:1,VIACSAB:1)"
  },
  "zg1000": {
    "CCCma TS var name": null,
    "CCCma diag file": null,
    "CCCma hist file": "ss",
    "CCCma hist var names": "PHIS",
    "CCCma hist var frequency": "6h",
    "CCCma check": "Diag file.",
    "priority": 2.0,
    "MIPs (requesting)": "  DCPP(2), PAMIP(2)",
    "experiments": "  historical (DCPP:2,PAMIP:2)"
  }
}