{
  "epfy": {
    "CCCma TS var name": "meridional_component_ep_flux",
    "CCCma diag file": "dx",
    "CCCma check": "Michael, OK",
    "MIPs (requesting)": "  DynVarMIP(1.0,1.0,1.0,1.0)",
    "experiments": "  piControl (DynVarMIP:1.0), amip (DynVarMIP:1.0), historical (DynVarMIP:1.0), 1pctCO2 (DynVarMIP:1.0)"
  },
  "epfz": {
    "CCCma TS var name": "vertical_component_ep_flux",
    "CCCma diag file": "dx",
    "CCCma check": "Michael, OK",
    "MIPs (requesting)": "  DynVarMIP(1.0,1.0,1.0,1.0)",
    "experiments": "  piControl (DynVarMIP:1.0), amip (DynVarMIP:1.0), historical (DynVarMIP:1.0), 1pctCO2 (DynVarMIP:1.0)"
  },
  "hus": {
    "CCCma TS var name": "SHUM",
    "CCCma diag file": "dx",
    "CCCma hist file": "ss",
    "CCCma hist var names": "ES",
    "CCCma hist var frequency": "Spectral at ISSP",
    "CCCma check": "Michael, OK",
    "CCCma comment": "daily_cmip6.dk",
    "MIPs (requesting)": "  DAMIP(1,1,1,1,1)",
    "experiments": "  abrupt-4xCO2 (DAMIP:1), amip (DAMIP:1), 1pctCO2 (DAMIP:1), historical (DAMIP:1), piControl (DAMIP:1)"
  },
  "psitem": {
    "CCCma TS var name": "residual_streamfunction",
    "CCCma diag file": "dx",
    "CCCma check": "Michael, OK",
    "MIPs (requesting)": "  DynVarMIP(1.0,1.0,1.0,1.0)",
    "experiments": "  piControl (DynVarMIP:1.0), amip (DynVarMIP:1.0), historical (DynVarMIP:1.0), 1pctCO2 (DynVarMIP:1.0)"
  },
  "ta": {
    "CCCma TS var name": "TEMP",
    "CCCma diag file": "dx",
    "CCCma hist file": "ss",
    "CCCma hist var names": "TEMP",
    "CCCma hist var frequency": "Spectral at ISSP",
    "CCCma check": "Michael, OK",
    "CCCma comment": "daily_cmip6.dk",
    "MIPs (requesting)": "  DAMIP(1,1,1,1,1)",
    "experiments": "  abrupt-4xCO2 (DAMIP:1), amip (DAMIP:1), 1pctCO2 (DAMIP:1), historical (DAMIP:1), piControl (DAMIP:1)"
  },
  "ua": {
    "CCCma TS var name": "u",
    "CCCma diag file": "dx",
    "CCCma check": "Michael, OK",
    "CCCma comment": "daily_cmip6.dk",
    "MIPs (requesting)": "  DAMIP(1,1,1,1,1)",
    "experiments": "  abrupt-4xCO2 (DAMIP:1), amip (DAMIP:1), 1pctCO2 (DAMIP:1), historical (DAMIP:1), piControl (DAMIP:1)"
  },
  "utendepfd": {
    "CCCma TS var name": "ep_flux_divergence ",
    "CCCma diag file": "dx",
    "CCCma check": "Michael, OK",
    "MIPs (requesting)": "  DynVarMIP(1.0,1.0,1.0,1.0)",
    "experiments": "  piControl (DynVarMIP:1.0), amip (DynVarMIP:1.0), historical (DynVarMIP:1.0), 1pctCO2 (DynVarMIP:1.0)"
  },
  "utendnogw": {
    "CCCma TS var name": null,
    "CCCma diag file": null,
    "CCCma check": "N/A, Michael",
    "CCCma comment": "No Non-Orographic GW in CanESM5",
    "MIPs (requesting)": "  DynVarMIP(1.0,1.0,1.0,1.0)",
    "experiments": "  piControl (DynVarMIP:1.0), amip (DynVarMIP:1.0), historical (DynVarMIP:1.0), 1pctCO2 (DynVarMIP:1.0)"
  },
  "utendogw": {
    "CCCma TS var name": "tdoxr",
    "CCCma diag file": "dx",
    "CCCma check": "Michael, OK",
    "MIPs (requesting)": "  DynVarMIP(1.0,1.0,1.0,1.0)",
    "experiments": "  piControl (DynVarMIP:1.0), amip (DynVarMIP:1.0), historical (DynVarMIP:1.0), 1pctCO2 (DynVarMIP:1.0)"
  },
  "utendvtem": {
    "CCCma TS var name": "u_tndcy_due_to_v_tem_adv_and_coriolis_term",
    "CCCma diag file": "dx",
    "CCCma check": "Michael, OK",
    "MIPs (requesting)": "  DynVarMIP(1.0,1.0,1.0,1.0)",
    "experiments": "  piControl (DynVarMIP:1.0), amip (DynVarMIP:1.0), historical (DynVarMIP:1.0), 1pctCO2 (DynVarMIP:1.0)"
  },
  "utendwtem": {
    "CCCma TS var name": "u_tndcy_due_to_w_tem_adv",
    "CCCma diag file": "dx",
    "CCCma check": "Michael, OK",
    "MIPs (requesting)": "  DynVarMIP(1.0,1.0,1.0,1.0)",
    "experiments": "  piControl (DynVarMIP:1.0), amip (DynVarMIP:1.0), historical (DynVarMIP:1.0), 1pctCO2 (DynVarMIP:1.0)"
  },
  "va": {
    "CCCma TS var name": "v",
    "CCCma diag file": "dx",
    "CCCma check": "Michael, OK",
    "CCCma comment": "daily_cmip6.dk",
    "MIPs (requesting)": "  DAMIP(1,1,1,1,1)",
    "experiments": "  abrupt-4xCO2 (DAMIP:1), amip (DAMIP:1), 1pctCO2 (DAMIP:1), historical (DAMIP:1), piControl (DAMIP:1)"
  },
  "vtem": {
    "CCCma TS var name": "residual_meridional_velocity",
    "CCCma diag file": "dx",
    "CCCma check": "Michael, OK",
    "MIPs (requesting)": "  DynVarMIP(1.0,1.0,1.0,1.0)",
    "experiments": "  piControl (DynVarMIP:1.0), amip (DynVarMIP:1.0), historical (DynVarMIP:1.0), 1pctCO2 (DynVarMIP:1.0)"
  },
  "wtem": {
    "CCCma TS var name": "residual_vertical_velocity",
    "CCCma diag file": "dx",
    "CCCma check": "Michael, OK",
    "MIPs (requesting)": "  DynVarMIP(1.0,1.0,1.0,1.0)",
    "experiments": "  piControl (DynVarMIP:1.0), amip (DynVarMIP:1.0), historical (DynVarMIP:1.0), 1pctCO2 (DynVarMIP:1.0)"
  },
  "zg": {
    "CCCma TS var name": "PHI",
    "CCCma diag file": "dx",
    "CCCma optional deck": "divbyg",
    "CCCma units": "m",
    "CCCma hist file": "ss",
    "CCCma hist var names": "PHIS",
    "CCCma hist var frequency": "ISSP",
    "CCCma check": "Michael, OK",
    "CCCma comment": "PHI/9.80616",
    "MIPs (requesting)": "  DAMIP(1,1,1,1,1)",
    "experiments": "  abrupt-4xCO2 (DAMIP:1), amip (DAMIP:1), 1pctCO2 (DAMIP:1), historical (DAMIP:1), piControl (DAMIP:1)"
  }
}