{
  "cod": {
    "CCCma TS var name": null,
    "CCCma diag file": null,
    "CCCma check": "N/A, Jason",
    "MIPs (requesting)": "  AerChemMIP(1,1)",
    "experiments": "  amip (AerChemMIP:1), historical (AerChemMIP:1)"
  },
  "maxpblz": {
    "CCCma TS var name": null,
    "CCCma diag file": null,
    "CCCma check": "N/A, Jason",
    "MIPs (requesting)": "  AerChemMIP(1,1)",
    "experiments": "  amip (AerChemMIP:1), historical (AerChemMIP:1)"
  },
  "minpblz": {
    "CCCma TS var name": null,
    "CCCma diag file": null,
    "CCCma check": "N/A, Jason",
    "MIPs (requesting)": "  AerChemMIP(1,1)",
    "experiments": "  amip (AerChemMIP:1), historical (AerChemMIP:1)"
  },
  "od550aer": {
    "CCCma TS var name": "ODST",
    "CCCma diag file": "dd",
    "CCCma hist file": "gs",
    "CCCma hist var names": "ODST",
    "CCCma check": "Knut/Jason",
    "MIPs (requesting)": "  AerChemMIP(1,1)",
    "experiments": "  amip (AerChemMIP:1), historical (AerChemMIP:1)"
  },
  "sfo3max": {
    "CCCma TS var name": null,
    "CCCma diag file": null,
    "CCCma check": "N/A, Jason",
    "MIPs (requesting)": "  AerChemMIP(1,1)",
    "experiments": "  amip (AerChemMIP:1), historical (AerChemMIP:1)"
  },
  "toz": {
    "CCCma TS var name": null,
    "CCCma diag file": null,
    "CCCma check": "N/A, Jason",
    "MIPs (requesting)": "  AerChemMIP(1,1)",
    "experiments": "  amip (AerChemMIP:1), historical (AerChemMIP:1)"
  },
  "ua10": {
    "CCCma TS var name": "U",
    "CCCma diag file": "dp",
    "CCCma hist file": "ss",
    "CCCma hist var names": "VORT DIV",
    "CCCma hist var frequency": "Spectral at ISSP",
    "CCCma check": "Jason",
    "MIPs (requesting)": "  AerChemMIP(1,1)",
    "experiments": "  amip (AerChemMIP:1), historical (AerChemMIP:1)"
  },
  "zg10": {
    "CCCma TS var name": "PHI",
    "CCCma diag file": "dp",
    "CCCma optional deck": "divbyg",
    "CCCma hist file": "ss",
    "CCCma hist var names": "PHIS",
    "CCCma hist var frequency": "ISSP",
    "CCCma check": "Jason",
    "MIPs (requesting)": "  AerChemMIP(1,1)",
    "experiments": "  amip (AerChemMIP:1), historical (AerChemMIP:1)"
  },
  "zg100": {
    "CCCma TS var name": "PHI",
    "CCCma diag file": "dp",
    "CCCma optional deck": "divbyg",
    "CCCma hist file": "ss",
    "CCCma hist var names": "PHIS",
    "CCCma hist var frequency": "ISSP",
    "CCCma check": "Jason",
    "MIPs (requesting)": "  AerChemMIP(1,1)",
    "experiments": "  amip (AerChemMIP:1), historical (AerChemMIP:1)"
  },
  "zg1000": {
    "CCCma TS var name": "PHI",
    "CCCma diag file": "dp",
    "CCCma optional deck": "divbyg",
    "CCCma hist file": "ss",
    "CCCma hist var names": "PHIS",
    "CCCma hist var frequency": "ISSP",
    "CCCma check": "Jason",
    "MIPs (requesting)": "  AerChemMIP(1,1)",
    "experiments": "  amip (AerChemMIP:1), historical (AerChemMIP:1)"
  },
  "zg500": {
    "CCCma TS var name": "PHI",
    "CCCma diag file": "dp",
    "CCCma optional deck": "divbyg",
    "CCCma hist file": "ss",
    "CCCma hist var names": "PHIS TEMP",
    "CCCma hist var frequency": "Spectral at ISSP",
    "CCCma check": "Diag deck needs work.",
    "MIPs (requesting)": "  AerChemMIP(1,1), DCPP(1), PAMIP(1), PMIP(1,1,1,1)",
    "experiments": "  amip (AerChemMIP:1,PMIP:1), 1pctCO2 (PMIP:1), historical (AerChemMIP:1,DCPP:1,PAMIP:1,PMIP:1), piControl (PMIP:1)"
  }
}