{
  "arag": {
    "CCCma TS var name": null,
    "CCCma diag file": null,
    "CCCma hist file": "N/A",
    "CCCma check": "Do not provide, JRC",
    "MIPs (requesting)": "  AerChemMIP(2,2), CMIP(2,2,2,2), GeoMIP(2,2,2), LUMIP(2), OMIP(2,2,2,2), PMIP(2,2,2,2), VIACSAB(1,1,1,2,2,2,2)",
    "experiments": "  abrupt-4xCO2 (CMIP:2,GeoMIP:2,OMIP:2,PMIP:2), amip (VIACSAB:1,VIACSAB:2), 1pctCO2 (VIACSAB:1,CMIP:2,OMIP:2,PMIP:2), historical (VIACSAB:1,AerChemMIP:2,CMIP:2,GeoMIP:2,LUMIP:2,OMIP:2,PMIP:2,VIACSAB:2,VIACSAB:2), piControl (AerChemMIP:2,CMIP:2,GeoMIP:2,OMIP:2,PMIP:2,VIACSAB:2)"
  },
  "bacc": {
    "CCCma TS var name": null,
    "CCCma diag file": null,
    "CCCma hist file": "N/A",
    "CCCma check": "Do not provide, JRC",
    "MIPs (requesting)": "  AerChemMIP(3,3), CMIP(3,3,3,3), GeoMIP(3,3,3), LUMIP(3), OMIP(3,3,3,3), PMIP(3,3,3,3), VIACSAB(1,1,1,2,2,2,2,2,2)",
    "experiments": "  abrupt-4xCO2 (CMIP:3,GeoMIP:3,OMIP:3,PMIP:3), amip (VIACSAB:1,VIACSAB:2), 1pctCO2 (VIACSAB:1,VIACSAB:2,CMIP:3,OMIP:3,PMIP:3), historical (VIACSAB:1,VIACSAB:2,VIACSAB:2,AerChemMIP:3,CMIP:3,GeoMIP:3,LUMIP:3,OMIP:3,PMIP:3), piControl (VIACSAB:2,VIACSAB:2,AerChemMIP:3,CMIP:3,GeoMIP:3,OMIP:3,PMIP:3)"
  },
  "bddtalk": {
    "CCCma TS var name": null,
    "CCCma diag file": null,
    "CCCma hist file": "N/A",
    "CCCma check": "Do not provide, JRC",
    "MIPs (requesting)": "  AerChemMIP(3,3), CMIP(3,3,3,3), GeoMIP(3,3,3), LUMIP(3), OMIP(3,3,3,3), VIACSAB(1,1,1,2,2,2,2)",
    "experiments": "  abrupt-4xCO2 (CMIP:3,GeoMIP:3,OMIP:3), amip (VIACSAB:1,VIACSAB:2), 1pctCO2 (VIACSAB:1,CMIP:3,OMIP:3), historical (VIACSAB:1,VIACSAB:2,VIACSAB:2,AerChemMIP:3,CMIP:3,GeoMIP:3,LUMIP:3,OMIP:3), piControl (VIACSAB:2,AerChemMIP:3,CMIP:3,GeoMIP:3,OMIP:3)"
  },
  "bddtdic": {
    "CCCma TS var name": null,
    "CCCma diag file": null,
    "CCCma hist file": "N/A",
    "CCCma check": "Do not provide, JRC",
    "MIPs (requesting)": "  AerChemMIP(3,3), CMIP(3,3,3,3), GeoMIP(3,3,3), LUMIP(3), OMIP(3,3,3,3), VIACSAB(1,1,1,2,2,2,2)",
    "experiments": "  abrupt-4xCO2 (CMIP:3,GeoMIP:3,OMIP:3), amip (VIACSAB:1,VIACSAB:2), 1pctCO2 (VIACSAB:1,CMIP:3,OMIP:3), historical (VIACSAB:1,VIACSAB:2,VIACSAB:2,AerChemMIP:3,CMIP:3,GeoMIP:3,LUMIP:3,OMIP:3), piControl (VIACSAB:2,AerChemMIP:3,CMIP:3,GeoMIP:3,OMIP:3)"
  },
  "bddtdife": {
    "CCCma TS var name": null,
    "CCCma diag file": null,
    "CCCma optional deck": "  ",
    "CCCma hist file": "N/A",
    "CCCma check": "Do not provide, JRC",
    "MIPs (requesting)": "  AerChemMIP(3,3), CMIP(3,3,3,3), GeoMIP(3,3,3), LUMIP(3), OMIP(3,3,3,3), VIACSAB(1,1,1,2,2,2,2)",
    "experiments": "  abrupt-4xCO2 (CMIP:3,GeoMIP:3,OMIP:3), amip (VIACSAB:1,VIACSAB:2), 1pctCO2 (VIACSAB:1,CMIP:3,OMIP:3), historical (VIACSAB:1,VIACSAB:2,VIACSAB:2,AerChemMIP:3,CMIP:3,GeoMIP:3,LUMIP:3,OMIP:3), piControl (VIACSAB:2,AerChemMIP:3,CMIP:3,GeoMIP:3,OMIP:3)"
  },
  "bddtdin": {
    "CCCma TS var name": null,
    "CCCma diag file": null,
    "CCCma optional deck": "  ",
    "CCCma hist file": "N/A",
    "CCCma check": "Do not provide, JRC",
    "MIPs (requesting)": "  AerChemMIP(3,3), CMIP(3,3,3,3), GeoMIP(3,3,3), LUMIP(3), OMIP(3,3,3,3), VIACSAB(1,1,1,2,2,2,2)",
    "experiments": "  abrupt-4xCO2 (CMIP:3,GeoMIP:3,OMIP:3), amip (VIACSAB:1,VIACSAB:2), 1pctCO2 (VIACSAB:1,CMIP:3,OMIP:3), historical (VIACSAB:1,VIACSAB:2,VIACSAB:2,AerChemMIP:3,CMIP:3,GeoMIP:3,LUMIP:3,OMIP:3), piControl (VIACSAB:2,AerChemMIP:3,CMIP:3,GeoMIP:3,OMIP:3)"
  },
  "bddtdip": {
    "CCCma TS var name": null,
    "CCCma diag file": null,
    "CCCma hist file": "N/A",
    "CCCma check": "Do not provide, JRC",
    "MIPs (requesting)": "  AerChemMIP(3,3), CMIP(3,3,3,3), GeoMIP(3,3,3), LUMIP(3), OMIP(3,3,3,3), VIACSAB(1,1,1,2,2,2,2)",
    "experiments": "  abrupt-4xCO2 (CMIP:3,GeoMIP:3,OMIP:3), amip (VIACSAB:1,VIACSAB:2), 1pctCO2 (VIACSAB:1,CMIP:3,OMIP:3), historical (VIACSAB:1,VIACSAB:2,VIACSAB:2,AerChemMIP:3,CMIP:3,GeoMIP:3,LUMIP:3,OMIP:3), piControl (VIACSAB:2,AerChemMIP:3,CMIP:3,GeoMIP:3,OMIP:3)"
  },
  "bddtdisi": {
    "CCCma TS var name": null,
    "CCCma diag file": null,
    "CCCma optional deck": "  ",
    "CCCma hist file": "N/A",
    "CCCma check": "Do not provide, JRC",
    "MIPs (requesting)": "  AerChemMIP(3,3), CMIP(3,3,3,3), GeoMIP(3,3,3), LUMIP(3), OMIP(3,3,3,3), VIACSAB(1,1,1,2,2,2,2)",
    "experiments": "  abrupt-4xCO2 (CMIP:3,GeoMIP:3,OMIP:3), amip (VIACSAB:1,VIACSAB:2), 1pctCO2 (VIACSAB:1,CMIP:3,OMIP:3), historical (VIACSAB:1,VIACSAB:2,VIACSAB:2,AerChemMIP:3,CMIP:3,GeoMIP:3,LUMIP:3,OMIP:3), piControl (VIACSAB:2,AerChemMIP:3,CMIP:3,GeoMIP:3,OMIP:3)"
  },
  "bfe": {
    "CCCma TS var name": "PHYFe PHY2Fe ZOO ZOO2 POC GOC",
    "CCCma diag file": "1y_ptrc_t",
    "CCCma optional deck": "calculate_bfe",
    "CCCma hist file": "1m_ptrc_t",
    "priority": 2.0,
    "MIPs (requesting)": "  AerChemMIP(2,2), CMIP(2,2,2,2), GeoMIP(2,2,2), LUMIP(2), OMIP(2,2,2,2)",
    "experiments": "  abrupt-4xCO2 (CMIP:2,GeoMIP:2,OMIP:2), 1pctCO2 (CMIP:2,OMIP:2), historical (AerChemMIP:2,CMIP:2,GeoMIP:2,LUMIP:2,OMIP:2), piControl (AerChemMIP:2,CMIP:2,GeoMIP:2,OMIP:2)"
  },
  "bsi": {
    "CCCma TS var name": null,
    "CCCma diag file": null,
    "CCCma hist file": "N/A",
    "CCCma check": "Do not provide, JRC",
    "priority": 2.0,
    "MIPs (requesting)": "  AerChemMIP(2,2), CMIP(2,2,2,2), GeoMIP(2,2,2), LUMIP(2), OMIP(2,2,2,2)",
    "experiments": "  abrupt-4xCO2 (CMIP:2,GeoMIP:2,OMIP:2), 1pctCO2 (CMIP:2,OMIP:2), historical (AerChemMIP:2,CMIP:2,GeoMIP:2,LUMIP:2,OMIP:2), piControl (AerChemMIP:2,CMIP:2,GeoMIP:2,OMIP:2)"
  },
  "calc": {
    "CCCma TS var name": "CaCO3",
    "CCCma diag file": "1y_ptrc_t",
    "CCCma optional deck": "mltby1em3",
    "CCCma units": "mmol m-3",
    "CCCma hist file": "1m_ptrc_t",
    "MIPs (requesting)": "  AerChemMIP(2,2), CMIP(2,2,2,2), GeoMIP(2,2,2), LUMIP(2), OMIP(2,2,2,2), PMIP(2,2,2,2), VIACSAB(1,1,1,2,2,2,2)",
    "experiments": "  abrupt-4xCO2 (CMIP:2,GeoMIP:2,OMIP:2,PMIP:2), amip (VIACSAB:1,VIACSAB:2), 1pctCO2 (VIACSAB:1,CMIP:2,OMIP:2,PMIP:2), historical (VIACSAB:1,AerChemMIP:2,CMIP:2,GeoMIP:2,LUMIP:2,OMIP:2,PMIP:2,VIACSAB:2,VIACSAB:2), piControl (AerChemMIP:2,CMIP:2,GeoMIP:2,OMIP:2,PMIP:2,VIACSAB:2)"
  },
  "cfc11": {
    "CCCma TS var name": "cfc11",
    "CCCma diag file": "1m_ptrc_t",
    "CCCma optional deck": "meanm2y",
    "CCCma units": "mol m-3",
    "CCCma hist file": "1m_ptrc_t",
    "Include only for": "historical, esm-hist, omip1",
    "priority": 2.0,
    "MIPs (requesting)": "  AerChemMIP(2,2), CMIP(2,2,2,2), GeoMIP(2,2,2), LUMIP(2), OMIP(2,2,2,2)",
    "experiments": "  abrupt-4xCO2 (CMIP:2,GeoMIP:2,OMIP:2), 1pctCO2 (CMIP:2,OMIP:2), historical (AerChemMIP:2,CMIP:2,GeoMIP:2,LUMIP:2,OMIP:2), piControl (AerChemMIP:2,CMIP:2,GeoMIP:2,OMIP:2)"
  },
  "cfc12": {
    "CCCma TS var name": "cfc12",
    "CCCma diag file": "1m_ptrc_t",
    "CCCma optional deck": "meanm2y",
    "CCCma hist file": "1m_ptrc_t",
    "Include only for": "historical, esm-hist, omip1",
    "MIPs (requesting)": "  AerChemMIP(1,1), CMIP(1,1,1,1), GeoMIP(1,1,1), LUMIP(1), OMIP(1,1,1,1)",
    "experiments": "  abrupt-4xCO2 (CMIP:1,GeoMIP:1,OMIP:1), 1pctCO2 (CMIP:1,OMIP:1), historical (AerChemMIP:1,CMIP:1,GeoMIP:1,LUMIP:1,OMIP:1), piControl (AerChemMIP:1,CMIP:1,GeoMIP:1,OMIP:1)"
  },
  "chl": {
    "CCCma TS var name": "NCHL DCHL",
    "CCCma diag file": "1y_ptrc_t",
    "CCCma optional deck": "sum2_mltby1em6",
    "CCCma units": "mg m-3 ",
    "CCCma hist file": "1m_ptrc_t",
    "CCCma comment": "sum and multiply by 1.e-6",
    "MIPs (requesting)": "  AerChemMIP(1,1), CMIP(1,1,1,1), GeoMIP(1,1,1), LUMIP(1), OMIP(1,1,1,1), PMIP(1,1,1,1)",
    "experiments": "  abrupt-4xCO2 (CMIP:1,GeoMIP:1,OMIP:1,PMIP:1), 1pctCO2 (CMIP:1,OMIP:1,PMIP:1), historical (AerChemMIP:1,CMIP:1,GeoMIP:1,LUMIP:1,OMIP:1,PMIP:1), piControl (AerChemMIP:1,CMIP:1,GeoMIP:1,OMIP:1,PMIP:1)"
  },
  "chlcalc": {
    "CCCma TS var name": null,
    "CCCma diag file": null,
    "CCCma hist file": "N/A",
    "CCCma check": "Do not provide, JRC",
    "priority": 2.0,
    "MIPs (requesting)": "  AerChemMIP(2,2), CMIP(2,2,2,2), GeoMIP(2,2,2), LUMIP(2), OMIP(2,2,2,2)",
    "experiments": "  abrupt-4xCO2 (CMIP:2,GeoMIP:2,OMIP:2), 1pctCO2 (CMIP:2,OMIP:2), historical (AerChemMIP:2,CMIP:2,GeoMIP:2,LUMIP:2,OMIP:2), piControl (AerChemMIP:2,CMIP:2,GeoMIP:2,OMIP:2)"
  },
  "chldiat": {
    "CCCma TS var name": "DCHL",
    "CCCma diag file": "1y_ptrc_t",
    "CCCma optional deck": "mltby1em6",
    "CCCma units": "mg m-3 ",
    "CCCma hist file": "1m_ptrc_t",
    "CCCma comment": "*1.e-6",
    "priority": 2.0,
    "MIPs (requesting)": "  AerChemMIP(2,2), CMIP(2,2,2,2), GeoMIP(2,2,2), LUMIP(2), OMIP(2,2,2,2)",
    "experiments": "  abrupt-4xCO2 (CMIP:2,GeoMIP:2,OMIP:2), 1pctCO2 (CMIP:2,OMIP:2), historical (AerChemMIP:2,CMIP:2,GeoMIP:2,LUMIP:2,OMIP:2), piControl (AerChemMIP:2,CMIP:2,GeoMIP:2,OMIP:2)"
  },
  "chldiaz": {
    "CCCma TS var name": null,
    "CCCma diag file": null,
    "CCCma hist file": "N/A",
    "CCCma check": "Do not provide, JRC",
    "priority": 2.0,
    "MIPs (requesting)": "  AerChemMIP(2,2), CMIP(2,2,2,2), GeoMIP(2,2,2), LUMIP(2), OMIP(2,2,2,2)",
    "experiments": "  abrupt-4xCO2 (CMIP:2,GeoMIP:2,OMIP:2), 1pctCO2 (CMIP:2,OMIP:2), historical (AerChemMIP:2,CMIP:2,GeoMIP:2,LUMIP:2,OMIP:2), piControl (AerChemMIP:2,CMIP:2,GeoMIP:2,OMIP:2)"
  },
  "chlmisc": {
    "CCCma TS var name": "NCHL",
    "CCCma diag file": "1y_ptrc_t",
    "CCCma optional deck": "mltby1em6",
    "CCCma units": "mg m-3 ",
    "CCCma hist file": "1m_ptrc_t",
    "CCCma comment": "*1.e-6",
    "priority": 2.0,
    "MIPs (requesting)": "  AerChemMIP(2,2), CMIP(2,2,2,2), GeoMIP(2,2,2), LUMIP(2), OMIP(2,2,2,2)",
    "experiments": "  abrupt-4xCO2 (CMIP:2,GeoMIP:2,OMIP:2), 1pctCO2 (CMIP:2,OMIP:2), historical (AerChemMIP:2,CMIP:2,GeoMIP:2,LUMIP:2,OMIP:2), piControl (AerChemMIP:2,CMIP:2,GeoMIP:2,OMIP:2)"
  },
  "chlpico": {
    "CCCma TS var name": null,
    "CCCma diag file": null,
    "CCCma hist file": "N/A",
    "CCCma check": "Do not provide, JRC",
    "priority": 2.0,
    "MIPs (requesting)": "  AerChemMIP(2,2), CMIP(2,2,2,2), GeoMIP(2,2,2), LUMIP(2), OMIP(2,2,2,2)",
    "experiments": "  abrupt-4xCO2 (CMIP:2,GeoMIP:2,OMIP:2), 1pctCO2 (CMIP:2,OMIP:2), historical (AerChemMIP:2,CMIP:2,GeoMIP:2,LUMIP:2,OMIP:2), piControl (AerChemMIP:2,CMIP:2,GeoMIP:2,OMIP:2)"
  },
  "co3": {
    "CCCma TS var name": "CO3",
    "CCCma diag file": "1y_diad_t",
    "CCCma units": "mol m-3",
    "CCCma hist file": "1m_diad_t",
    "CCCma comment": "calculated offline",
    "MIPs (requesting)": "  AerChemMIP(2,2), CMIP(2,2,2,2), GeoMIP(2,2,2), LUMIP(2), OMIP(2,2,2,2), VIACSAB(1,1,1)",
    "experiments": "  abrupt-4xCO2 (CMIP:2,GeoMIP:2,OMIP:2), amip (VIACSAB:1), 1pctCO2 (VIACSAB:1,CMIP:2,OMIP:2), historical (VIACSAB:1,AerChemMIP:2,CMIP:2,GeoMIP:2,LUMIP:2,OMIP:2), piControl (AerChemMIP:2,CMIP:2,GeoMIP:2,OMIP:2)"
  },
  "co3abio": {
    "CCCma TS var name": null,
    "CCCma diag file": null,
    "CCCma hist file": "N/A",
    "CCCma check": "Do not provide, JRC",
    "priority": 2.0,
    "MIPs (requesting)": "  AerChemMIP(2,2), CMIP(2,2,2,2), GeoMIP(2,2,2), LUMIP(2), OMIP(2,2,2,2)",
    "experiments": "  abrupt-4xCO2 (CMIP:2,GeoMIP:2,OMIP:2), 1pctCO2 (CMIP:2,OMIP:2), historical (AerChemMIP:2,CMIP:2,GeoMIP:2,LUMIP:2,OMIP:2), piControl (AerChemMIP:2,CMIP:2,GeoMIP:2,OMIP:2)"
  },
  "co3nat": {
    "CCCma TS var name": null,
    "CCCma diag file": null,
    "CCCma hist file": "N/A",
    "CCCma check": "Do not provide, JRC",
    "priority": 2.0,
    "MIPs (requesting)": "  AerChemMIP(2,2), CMIP(2,2,2,2), GeoMIP(2,2,2), LUMIP(2), OMIP(2,2,2,2)",
    "experiments": "  abrupt-4xCO2 (CMIP:2,GeoMIP:2,OMIP:2), 1pctCO2 (CMIP:2,OMIP:2), historical (AerChemMIP:2,CMIP:2,GeoMIP:2,LUMIP:2,OMIP:2), piControl (AerChemMIP:2,CMIP:2,GeoMIP:2,OMIP:2)"
  },
  "co3satarag": {
    "CCCma TS var name": "CO3sata",
    "CCCma diag file": "1y_diad_t",
    "CCCma units": "mol m-3",
    "CCCma hist file": "1m_diad_t",
    "CCCma comment": "calculated offline",
    "MIPs (requesting)": "  AerChemMIP(2,2), CMIP(2,2,2,2), GeoMIP(2,2,2), LUMIP(2), OMIP(2,2,2,2), VIACSAB(1,1,1)",
    "experiments": "  abrupt-4xCO2 (CMIP:2,GeoMIP:2,OMIP:2), amip (VIACSAB:1), 1pctCO2 (VIACSAB:1,CMIP:2,OMIP:2), historical (VIACSAB:1,AerChemMIP:2,CMIP:2,GeoMIP:2,LUMIP:2,OMIP:2), piControl (AerChemMIP:2,CMIP:2,GeoMIP:2,OMIP:2)"
  },
  "co3satcalc": {
    "CCCma TS var name": "CO3satc",
    "CCCma diag file": "1y_diad_t",
    "CCCma units": "mol m-3",
    "CCCma hist file": "1m_diad_t",
    "CCCma comment": "calculated offline",
    "MIPs (requesting)": "  AerChemMIP(2,2), CMIP(2,2,2,2), GeoMIP(2,2,2), LUMIP(2), OMIP(2,2,2,2), VIACSAB(1,1,1)",
    "experiments": "  abrupt-4xCO2 (CMIP:2,GeoMIP:2,OMIP:2), amip (VIACSAB:1), 1pctCO2 (VIACSAB:1,CMIP:2,OMIP:2), historical (VIACSAB:1,AerChemMIP:2,CMIP:2,GeoMIP:2,LUMIP:2,OMIP:2), piControl (AerChemMIP:2,CMIP:2,GeoMIP:2,OMIP:2)"
  },
  "darag": {
    "CCCma TS var name": null,
    "CCCma diag file": null,
    "CCCma hist file": "N/A",
    "CCCma check": "Do not provide, JRC",
    "MIPs (requesting)": "  AerChemMIP(2,2), CMIP(2,2,2,2), GeoMIP(2,2,2), LUMIP(2), OMIP(2,2,2,2), VIACSAB(1,1,1,2,2,2,2)",
    "experiments": "  abrupt-4xCO2 (CMIP:2,GeoMIP:2,OMIP:2), amip (VIACSAB:1,VIACSAB:2), 1pctCO2 (VIACSAB:1,CMIP:2,OMIP:2), historical (VIACSAB:1,AerChemMIP:2,CMIP:2,GeoMIP:2,LUMIP:2,OMIP:2,VIACSAB:2,VIACSAB:2), piControl (AerChemMIP:2,CMIP:2,GeoMIP:2,OMIP:2,VIACSAB:2)"
  },
  "dcalc": {
    "CCCma TS var name": "DCAL",
    "CCCma diag file": "1y_diad_t",
    "CCCma optional deck": "  ",
    "CCCma units": "mol m-3 s-1",
    "CCCma hist file": "1m_diad_t",
    "MIPs (requesting)": "  AerChemMIP(2,2), CMIP(2,2,2,2), GeoMIP(2,2,2), LUMIP(2), OMIP(2,2,2,2), VIACSAB(1,1,1,2,2,2,2)",
    "experiments": "  abrupt-4xCO2 (CMIP:2,GeoMIP:2,OMIP:2), amip (VIACSAB:1,VIACSAB:2), 1pctCO2 (VIACSAB:1,CMIP:2,OMIP:2), historical (VIACSAB:1,AerChemMIP:2,CMIP:2,GeoMIP:2,LUMIP:2,OMIP:2,VIACSAB:2,VIACSAB:2), piControl (AerChemMIP:2,CMIP:2,GeoMIP:2,OMIP:2,VIACSAB:2)"
  },
  "detoc": {
    "CCCma TS var name": "POC GOC",
    "CCCma diag file": "1y_ptrc_t",
    "CCCma optional deck": "sum2_mltby1em3",
    "CCCma units": "mmolC m-3 ",
    "CCCma hist file": "1m_ptrc_t",
    "MIPs (requesting)": "  AerChemMIP(2,2), CDRMIP(2,2,2,2,2), CMIP(2,2,2,2), GeoMIP(2,2,2), LUMIP(2), OMIP(2,2,2,2), PMIP(2,2,2,2), VIACSAB(1,1,1,2,2,2,2,2,2)",
    "experiments": "  abrupt-4xCO2 (CDRMIP:2,CMIP:2,GeoMIP:2,OMIP:2,PMIP:2), amip (VIACSAB:1,CDRMIP:2,VIACSAB:2), 1pctCO2 (VIACSAB:1,CDRMIP:2,CMIP:2,OMIP:2,PMIP:2,VIACSAB:2), historical (VIACSAB:1,AerChemMIP:2,CDRMIP:2,CMIP:2,GeoMIP:2,LUMIP:2,OMIP:2,PMIP:2,VIACSAB:2,VIACSAB:2), piControl (AerChemMIP:2,CDRMIP:2,CMIP:2,GeoMIP:2,OMIP:2,PMIP:2,VIACSAB:2,VIACSAB:2)"
  },
  "dfe": {
    "CCCma TS var name": "dFe",
    "CCCma diag file": "1y_ptrc_t",
    "CCCma optional deck": "mltby1em9",
    "CCCma units": "nmol m-3",
    "CCCma hist file": "1m_ptrc_t",
    "CCCma comment": "*1.e-9",
    "MIPs (requesting)": "  AerChemMIP(1,1), CMIP(1,1,1,1), GeoMIP(1,1,1), LUMIP(1), OMIP(1,1,1,1), PMIP(1,1,1,1)",
    "experiments": "  abrupt-4xCO2 (CMIP:1,GeoMIP:1,OMIP:1,PMIP:1), 1pctCO2 (CMIP:1,OMIP:1,PMIP:1), historical (AerChemMIP:1,CMIP:1,GeoMIP:1,LUMIP:1,OMIP:1,PMIP:1), piControl (AerChemMIP:1,CMIP:1,GeoMIP:1,OMIP:1,PMIP:1)"
  },
  "difmxybo": {
    "CCCma TS var name": " ",
    "CCCma diag file": null,
    "CCCma optional deck": " ",
    "CCCma units": " ",
    "CCCma hist file": " N/A for orca1 ",
    "CCCma check": "N/A for ORCA1, DY",
    "CCCma comment": " ",
    "priority": 2.0,
    "MIPs (requesting)": "  AerChemMIP(3,3), CMIP(3,3,3,3), FAFMIP(2,2,2), GeoMIP(3,3,3), LUMIP(3), OMIP(3,3,3,3)",
    "experiments": "  abrupt-4xCO2 (FAFMIP:2,CMIP:3,GeoMIP:3,OMIP:3), 1pctCO2 (FAFMIP:2,CMIP:3,OMIP:3), historical (AerChemMIP:3,CMIP:3,GeoMIP:3,LUMIP:3,OMIP:3), piControl (FAFMIP:2,AerChemMIP:3,CMIP:3,GeoMIP:3,OMIP:3)"
  },
  "difmxylo": {
    "CCCma TS var name": " ",
    "CCCma diag file": null,
    "CCCma optional deck": " ",
    "CCCma units": " ",
    "CCCma hist file": " ",
    "CCCma check": "Do not provide, DY",
    "CCCma comment": " ",
    "priority": 2.0,
    "MIPs (requesting)": "  AerChemMIP(3,3), CMIP(3,3,3,3), FAFMIP(2,2,2), GeoMIP(3,3,3), LUMIP(3), OMIP(3,3,3,3)",
    "experiments": "  abrupt-4xCO2 (FAFMIP:2,CMIP:3,GeoMIP:3,OMIP:3), 1pctCO2 (FAFMIP:2,CMIP:3,OMIP:3), historical (AerChemMIP:3,CMIP:3,GeoMIP:3,LUMIP:3,OMIP:3), piControl (FAFMIP:2,AerChemMIP:3,CMIP:3,GeoMIP:3,OMIP:3)"
  },
  "diftrblo": {
    "CCCma TS var name": "soleaeiw difvho",
    "CCCma diag file": "1m_grid_w",
    "CCCma optional deck": "meanm2y_expd2Dto3D",
    "CCCma units": "m2 s-1 ",
    "CCCma hist file": "1m_grid_w ",
    "CCCma check": "DY",
    "CCCma comment": "1. key_traldf_eiv and key_traldf_c2d. 2. Post-processing: (1) 1m->1y; (2) 2D->3D.",
    "CCCma NetCDF comment": "Meta data: The field does not change vertically.",
    "MIPs (requesting)": "  AerChemMIP(3,3), CMIP(3,3,3,3), FAFMIP(1,1,1), GeoMIP(3,3,3), LUMIP(3), OMIP(3,3,3,3)",
    "experiments": "  abrupt-4xCO2 (FAFMIP:1,CMIP:3,GeoMIP:3,OMIP:3), 1pctCO2 (FAFMIP:1,CMIP:3,OMIP:3), historical (AerChemMIP:3,CMIP:3,GeoMIP:3,LUMIP:3,OMIP:3), piControl (FAFMIP:1,AerChemMIP:3,CMIP:3,GeoMIP:3,OMIP:3)"
  },
  "diftrelo": {
    "CCCma TS var name": " ",
    "CCCma diag file": null,
    "CCCma optional deck": " ",
    "CCCma units": " ",
    "CCCma hist file": "N/A",
    "CCCma check": "See Oclim, DY",
    "CCCma comment": " see ln_traldf_iso? ",
    "MIPs (requesting)": "  AerChemMIP(3,3), CMIP(3,3,3,3), FAFMIP(1,1,1), GeoMIP(3,3,3), LUMIP(3), OMIP(3,3,3,3)",
    "experiments": "  abrupt-4xCO2 (FAFMIP:1,CMIP:3,GeoMIP:3,OMIP:3), 1pctCO2 (FAFMIP:1,CMIP:3,OMIP:3), historical (AerChemMIP:3,CMIP:3,GeoMIP:3,LUMIP:3,OMIP:3), piControl (FAFMIP:1,AerChemMIP:3,CMIP:3,GeoMIP:3,OMIP:3)"
  },
  "difvho": {
    "CCCma TS var name": " difvho ",
    "CCCma diag file": "1m_grid_w",
    "CCCma optional deck": " meanm2y",
    "CCCma units": " m2 s-1 ",
    "CCCma hist file": "1m_grid_w_ar6 ",
    "CCCma check": "DY",
    "CCCma comment": "1. Post-processing: 1m -> 1y ",
    "MIPs (requesting)": "  AerChemMIP(3,3), CMIP(3,3,3,3), FAFMIP(1,1,1), GeoMIP(3,3,3), LUMIP(3), OMIP(3,3,3,3)",
    "experiments": "  abrupt-4xCO2 (FAFMIP:1,CMIP:3,GeoMIP:3,OMIP:3), 1pctCO2 (FAFMIP:1,CMIP:3,OMIP:3), historical (AerChemMIP:3,CMIP:3,GeoMIP:3,LUMIP:3,OMIP:3), piControl (FAFMIP:1,AerChemMIP:3,CMIP:3,GeoMIP:3,OMIP:3)"
  },
  "difvso": {
    "CCCma TS var name": " difvso ",
    "CCCma diag file": "1m_grid_w",
    "CCCma optional deck": " meanm2y",
    "CCCma units": " m2 s-1",
    "CCCma hist file": "1m_grid_w_ar6 ",
    "CCCma check": "DY",
    "CCCma comment": "1. Post-processing: 1m -> 1y ",
    "MIPs (requesting)": "  AerChemMIP(3,3), CMIP(3,3,3,3), FAFMIP(1,1,1), GeoMIP(3,3,3), LUMIP(3), OMIP(3,3,3,3)",
    "experiments": "  abrupt-4xCO2 (FAFMIP:1,CMIP:3,GeoMIP:3,OMIP:3), 1pctCO2 (FAFMIP:1,CMIP:3,OMIP:3), historical (AerChemMIP:3,CMIP:3,GeoMIP:3,LUMIP:3,OMIP:3), piControl (FAFMIP:1,AerChemMIP:3,CMIP:3,GeoMIP:3,OMIP:3)"
  },
  "dispkexyfo": {
    "CCCma TS var name": " ",
    "CCCma diag file": null,
    "CCCma optional deck": " ",
    "CCCma units": " ",
    "CCCma hist file": " ",
    "CCCma check": "Do not provide, DY",
    "CCCma comment": " ",
    "priority": 2.0,
    "MIPs (requesting)": "  AerChemMIP(3,3), CMIP(3,3,3,3), FAFMIP(2,2,2), GeoMIP(3,3,3), LUMIP(3), OMIP(3,3,3,3)",
    "experiments": "  abrupt-4xCO2 (FAFMIP:2,CMIP:3,GeoMIP:3,OMIP:3), 1pctCO2 (FAFMIP:2,CMIP:3,OMIP:3), historical (AerChemMIP:3,CMIP:3,GeoMIP:3,LUMIP:3,OMIP:3), piControl (FAFMIP:2,AerChemMIP:3,CMIP:3,GeoMIP:3,OMIP:3)"
  },
  "dissi13c": {
    "CCCma TS var name": null,
    "CCCma diag file": null,
    "CCCma hist file": "N/A",
    "CCCma check": "Do not provide, JRC",
    "MIPs (requesting)": "  AerChemMIP(1,1), CMIP(1,1,1,1), GeoMIP(1,1,1), LUMIP(1), OMIP(1,1,1,1)",
    "experiments": "  abrupt-4xCO2 (CMIP:1,GeoMIP:1,OMIP:1), 1pctCO2 (CMIP:1,OMIP:1), historical (AerChemMIP:1,CMIP:1,GeoMIP:1,LUMIP:1,OMIP:1), piControl (AerChemMIP:1,CMIP:1,GeoMIP:1,OMIP:1)"
  },
  "dissi14cabio": {
    "CCCma TS var name": null,
    "CCCma diag file": null,
    "CCCma hist file": "N/A",
    "CCCma check": "Do not provide, JRC",
    "MIPs (requesting)": "  AerChemMIP(1,1), CMIP(1,1,1,1), GeoMIP(1,1,1), LUMIP(1), OMIP(1,1,1,1)",
    "experiments": "  abrupt-4xCO2 (CMIP:1,GeoMIP:1,OMIP:1), 1pctCO2 (CMIP:1,OMIP:1), historical (AerChemMIP:1,CMIP:1,GeoMIP:1,LUMIP:1,OMIP:1), piControl (AerChemMIP:1,CMIP:1,GeoMIP:1,OMIP:1)"
  },
  "dissic": {
    "CCCma TS var name": "DIC ",
    "CCCma diag file": "1y_ptrc_t",
    "CCCma optional deck": "mltby1em3",
    "CCCma units": "mmol m-3 ",
    "CCCma hist file": "1m_ptrc_t",
    "CCCma comment": "*0.001",
    "MIPs (requesting)": "  AerChemMIP(1,1), CDRMIP(2,2,2,2,2), CMIP(1,1,1,1), GeoMIP(1,1,1), LUMIP(1), OMIP(1,1,1,1), PMIP(1,1,1,1), VIACSAB(1,1,1,2,2,2,2,2,2)",
    "experiments": "  abrupt-4xCO2 (CMIP:1,GeoMIP:1,OMIP:1,PMIP:1,CDRMIP:2), amip (VIACSAB:1,CDRMIP:2,VIACSAB:2), 1pctCO2 (CMIP:1,OMIP:1,PMIP:1,VIACSAB:1,CDRMIP:2,VIACSAB:2), historical (AerChemMIP:1,CMIP:1,GeoMIP:1,LUMIP:1,OMIP:1,PMIP:1,VIACSAB:1,CDRMIP:2,VIACSAB:2,VIACSAB:2), piControl (AerChemMIP:1,CMIP:1,GeoMIP:1,OMIP:1,PMIP:1,CDRMIP:2,VIACSAB:2,VIACSAB:2)"
  },
  "dissicabio": {
    "CCCma TS var name": null,
    "CCCma diag file": null,
    "CCCma hist file": "N/A",
    "CCCma check": "Do not provide, JRC",
    "MIPs (requesting)": "  AerChemMIP(1,1), CMIP(1,1,1,1), GeoMIP(1,1,1), LUMIP(1), OMIP(1,1,1,1)",
    "experiments": "  abrupt-4xCO2 (CMIP:1,GeoMIP:1,OMIP:1), 1pctCO2 (CMIP:1,OMIP:1), historical (AerChemMIP:1,CMIP:1,GeoMIP:1,LUMIP:1,OMIP:1), piControl (AerChemMIP:1,CMIP:1,GeoMIP:1,OMIP:1)"
  },
  "dissicnat": {
    "CCCma TS var name": null,
    "CCCma diag file": null,
    "CCCma hist file": "N/A",
    "CCCma check": "Do not provide, JRC",
    "MIPs (requesting)": "  AerChemMIP(1,1), CMIP(1,1,1,1), GeoMIP(1,1,1), LUMIP(1), OMIP(1,1,1,1)",
    "experiments": "  abrupt-4xCO2 (CMIP:1,GeoMIP:1,OMIP:1), 1pctCO2 (CMIP:1,OMIP:1), historical (AerChemMIP:1,CMIP:1,GeoMIP:1,LUMIP:1,OMIP:1), piControl (AerChemMIP:1,CMIP:1,GeoMIP:1,OMIP:1)"
  },
  "dissoc": {
    "CCCma TS var name": null,
    "CCCma diag file": null,
    "CCCma hist file": "N/A",
    "CCCma check": "Do not provide, JRC",
    "MIPs (requesting)": "  AerChemMIP(2,2), CDRMIP(2,2,2,2,2), CMIP(2,2,2,2), GeoMIP(2,2,2), LUMIP(2), OMIP(2,2,2,2), PMIP(2,2,2,2), VIACSAB(1,1,1,2,2,2,2,2,2)",
    "experiments": "  abrupt-4xCO2 (CDRMIP:2,CMIP:2,GeoMIP:2,OMIP:2,PMIP:2), amip (VIACSAB:1,CDRMIP:2,VIACSAB:2), 1pctCO2 (VIACSAB:1,CDRMIP:2,CMIP:2,OMIP:2,PMIP:2,VIACSAB:2), historical (VIACSAB:1,AerChemMIP:2,CDRMIP:2,CMIP:2,GeoMIP:2,LUMIP:2,OMIP:2,PMIP:2,VIACSAB:2,VIACSAB:2), piControl (AerChemMIP:2,CDRMIP:2,CMIP:2,GeoMIP:2,OMIP:2,PMIP:2,VIACSAB:2,VIACSAB:2)"
  },
  "dmso": {
    "CCCma TS var name": null,
    "CCCma diag file": null,
    "CCCma hist file": "N/A",
    "CCCma check": "Do not provide, JRC",
    "MIPs (requesting)": "  AerChemMIP(2,2), CMIP(2,2,2,2), GeoMIP(2,2,2), LUMIP(2), OMIP(2,2,2,2), VIACSAB(1,1,1,2,2,2,2)",
    "experiments": "  abrupt-4xCO2 (CMIP:2,GeoMIP:2,OMIP:2), amip (VIACSAB:1,VIACSAB:2), 1pctCO2 (VIACSAB:1,CMIP:2,OMIP:2), historical (VIACSAB:1,AerChemMIP:2,CMIP:2,GeoMIP:2,LUMIP:2,OMIP:2,VIACSAB:2,VIACSAB:2), piControl (AerChemMIP:2,CMIP:2,GeoMIP:2,OMIP:2,VIACSAB:2)"
  },
  "exparag": {
    "CCCma TS var name": null,
    "CCCma diag file": null,
    "CCCma optional deck": "  ",
    "CCCma hist file": "N/A",
    "CCCma check": "Do not provide, JRC",
    "MIPs (requesting)": "  AerChemMIP(2,2), CMIP(2,2,2,2), GeoMIP(2,2,2), LUMIP(2), OMIP(2,2,2,2), VIACSAB(1,1,1,2,2,2,2)",
    "experiments": "  abrupt-4xCO2 (CMIP:2,GeoMIP:2,OMIP:2), amip (VIACSAB:1,VIACSAB:2), 1pctCO2 (VIACSAB:1,CMIP:2,OMIP:2), historical (VIACSAB:1,AerChemMIP:2,CMIP:2,GeoMIP:2,LUMIP:2,OMIP:2,VIACSAB:2,VIACSAB:2), piControl (AerChemMIP:2,CMIP:2,GeoMIP:2,OMIP:2,VIACSAB:2)"
  },
  "expc": {
    "CCCma TS var name": null,
    "CCCma diag file": null,
    "CCCma optional deck": "  ",
    "CCCma hist file": "N/A",
    "CCCma check": "Do not provide, JRC",
    "MIPs (requesting)": "  AerChemMIP(2,2), CMIP(2,2,2,2), GeoMIP(2,2,2), LUMIP(2), OMIP(2,2,2,2), PMIP(1,1,1,1), VIACSAB(1,1,1,2,2,2,2,2)",
    "experiments": "  abrupt-4xCO2 (PMIP:1,CMIP:2,GeoMIP:2,OMIP:2), amip (VIACSAB:1,VIACSAB:2), 1pctCO2 (PMIP:1,VIACSAB:1,CMIP:2,OMIP:2,VIACSAB:2), historical (PMIP:1,VIACSAB:1,AerChemMIP:2,CMIP:2,GeoMIP:2,LUMIP:2,OMIP:2,VIACSAB:2,VIACSAB:2), piControl (PMIP:1,AerChemMIP:2,CMIP:2,GeoMIP:2,OMIP:2,VIACSAB:2)"
  },
  "expcalc": {
    "CCCma TS var name": null,
    "CCCma diag file": null,
    "CCCma optional deck": "  ",
    "CCCma hist file": "N/A",
    "CCCma check": "Do not provide, JRC",
    "MIPs (requesting)": "  AerChemMIP(2,2), CMIP(2,2,2,2), GeoMIP(2,2,2), LUMIP(2), OMIP(2,2,2,2), PMIP(1,1,1,1), VIACSAB(1,1,1,2,2,2,2)",
    "experiments": "  abrupt-4xCO2 (PMIP:1,CMIP:2,GeoMIP:2,OMIP:2), amip (VIACSAB:1,VIACSAB:2), 1pctCO2 (PMIP:1,VIACSAB:1,CMIP:2,OMIP:2), historical (PMIP:1,VIACSAB:1,AerChemMIP:2,CMIP:2,GeoMIP:2,LUMIP:2,OMIP:2,VIACSAB:2,VIACSAB:2), piControl (PMIP:1,AerChemMIP:2,CMIP:2,GeoMIP:2,OMIP:2,VIACSAB:2)"
  },
  "expfe": {
    "CCCma TS var name": null,
    "CCCma diag file": null,
    "CCCma hist file": "N/A",
    "CCCma check": "Do not provide, JRC",
    "MIPs (requesting)": "  AerChemMIP(2,2), CMIP(2,2,2,2), GeoMIP(2,2,2), LUMIP(2), OMIP(2,2,2,2), VIACSAB(1,1,1,1,1)",
    "experiments": "  abrupt-4xCO2 (CMIP:2,GeoMIP:2,OMIP:2), amip (VIACSAB:1), 1pctCO2 (VIACSAB:1,CMIP:2,OMIP:2), historical (VIACSAB:1,VIACSAB:1,AerChemMIP:2,CMIP:2,GeoMIP:2,LUMIP:2,OMIP:2), piControl (VIACSAB:1,AerChemMIP:2,CMIP:2,GeoMIP:2,OMIP:2)"
  },
  "expn": {
    "CCCma TS var name": null,
    "CCCma diag file": null,
    "CCCma optional deck": "  ",
    "CCCma hist file": "N/A",
    "CCCma check": "Do not provide, JRC",
    "MIPs (requesting)": "  AerChemMIP(2,2), CMIP(2,2,2,2), GeoMIP(2,2,2), LUMIP(2), OMIP(2,2,2,2), VIACSAB(1,1,1,2,2,2,2)",
    "experiments": "  abrupt-4xCO2 (CMIP:2,GeoMIP:2,OMIP:2), amip (VIACSAB:1,VIACSAB:2), 1pctCO2 (VIACSAB:1,CMIP:2,OMIP:2), historical (VIACSAB:1,AerChemMIP:2,CMIP:2,GeoMIP:2,LUMIP:2,OMIP:2,VIACSAB:2,VIACSAB:2), piControl (AerChemMIP:2,CMIP:2,GeoMIP:2,OMIP:2,VIACSAB:2)"
  },
  "expp": {
    "CCCma TS var name": null,
    "CCCma diag file": null,
    "CCCma optional deck": "  ",
    "CCCma hist file": "N/A",
    "CCCma check": "Do not provide, JRC",
    "MIPs (requesting)": "  AerChemMIP(2,2), CMIP(2,2,2,2), GeoMIP(2,2,2), LUMIP(2), OMIP(2,2,2,2), VIACSAB(1,1,1,2,2,2,2)",
    "experiments": "  abrupt-4xCO2 (CMIP:2,GeoMIP:2,OMIP:2), amip (VIACSAB:1,VIACSAB:2), 1pctCO2 (VIACSAB:1,CMIP:2,OMIP:2), historical (VIACSAB:1,AerChemMIP:2,CMIP:2,GeoMIP:2,LUMIP:2,OMIP:2,VIACSAB:2,VIACSAB:2), piControl (AerChemMIP:2,CMIP:2,GeoMIP:2,OMIP:2,VIACSAB:2)"
  },
  "expsi": {
    "CCCma TS var name": null,
    "CCCma diag file": null,
    "CCCma optional deck": "  ",
    "CCCma hist file": "N/A",
    "CCCma check": "Do not provide, JRC",
    "MIPs (requesting)": "  AerChemMIP(2,2), CMIP(2,2,2,2), GeoMIP(2,2,2), LUMIP(2), OMIP(2,2,2,2), PMIP(1,1,1,1), VIACSAB(1,1,1,2,2,2,2)",
    "experiments": "  abrupt-4xCO2 (PMIP:1,CMIP:2,GeoMIP:2,OMIP:2), amip (VIACSAB:1,VIACSAB:2), 1pctCO2 (PMIP:1,VIACSAB:1,CMIP:2,OMIP:2), historical (PMIP:1,VIACSAB:1,AerChemMIP:2,CMIP:2,GeoMIP:2,LUMIP:2,OMIP:2,VIACSAB:2,VIACSAB:2), piControl (PMIP:1,AerChemMIP:2,CMIP:2,GeoMIP:2,OMIP:2,VIACSAB:2)"
  },
  "fediss": {
    "CCCma TS var name": "Irondep",
    "CCCma diag file": "1y_diad_t",
    "CCCma optional deck": "  ",
    "CCCma units": "mol m-3 s-1",
    "CCCma hist file": "1m_diad_t",
    "priority": 3.0,
    "MIPs (requesting)": "  AerChemMIP(3,3), CMIP(3,3,3,3), GeoMIP(3,3,3), LUMIP(3), OMIP(3,3,3,3)",
    "experiments": "  abrupt-4xCO2 (CMIP:3,GeoMIP:3,OMIP:3), 1pctCO2 (CMIP:3,OMIP:3), historical (AerChemMIP:3,CMIP:3,GeoMIP:3,LUMIP:3,OMIP:3), piControl (AerChemMIP:3,CMIP:3,GeoMIP:3,OMIP:3)"
  },
  "fescav": {
    "CCCma TS var name": null,
    "CCCma diag file": null,
    "CCCma optional deck": "  ",
    "CCCma hist file": "N/A",
    "CCCma check": "Do not provide, JRC",
    "MIPs (requesting)": "  AerChemMIP(3,3), CMIP(3,3,3,3), GeoMIP(3,3,3), LUMIP(3), OMIP(3,3,3,3), VIACSAB(1,1,1,2)",
    "experiments": "  abrupt-4xCO2 (CMIP:3,GeoMIP:3,OMIP:3), amip (VIACSAB:1), 1pctCO2 (VIACSAB:1,CMIP:3,OMIP:3), historical (VIACSAB:1,VIACSAB:2,AerChemMIP:3,CMIP:3,GeoMIP:3,LUMIP:3,OMIP:3), piControl (AerChemMIP:3,CMIP:3,GeoMIP:3,OMIP:3)"
  },
  "fg13co2": {
    "CCCma TS var name": null,
    "CCCma diag file": null,
    "CCCma hist file": "N/A",
    "CCCma check": "Do not provide, JRC",
    "MIPs (requesting)": "  AerChemMIP(1,1), CMIP(1,1,1,1), GeoMIP(1,1,1), LUMIP(1), OMIP(1,1,1,1)",
    "experiments": "  abrupt-4xCO2 (CMIP:1,GeoMIP:1,OMIP:1), 1pctCO2 (CMIP:1,OMIP:1), historical (AerChemMIP:1,CMIP:1,GeoMIP:1,LUMIP:1,OMIP:1), piControl (AerChemMIP:1,CMIP:1,GeoMIP:1,OMIP:1)"
  },
  "fg14co2abio": {
    "CCCma TS var name": null,
    "CCCma diag file": null,
    "CCCma hist file": "N/A",
    "CCCma check": "Do not provide, JRC",
    "MIPs (requesting)": "  AerChemMIP(1,1), CMIP(1,1,1,1), GeoMIP(1,1,1), LUMIP(1), OMIP(1,1,1,1)",
    "experiments": "  abrupt-4xCO2 (CMIP:1,GeoMIP:1,OMIP:1), 1pctCO2 (CMIP:1,OMIP:1), historical (AerChemMIP:1,CMIP:1,GeoMIP:1,LUMIP:1,OMIP:1), piControl (AerChemMIP:1,CMIP:1,GeoMIP:1,OMIP:1)"
  },
  "fgco2": {
    "CCCma TS var name": "Cflx",
    "CCCma diag file": "1y_diad_t",
    "CCCma optional deck": "mltby0.012",
    "CCCma units": "mol m-2 s-1",
    "CCCma hist file": "1m_diad_t",
    "CCCma comment": "*0.012",
    "MIPs (requesting)": "  AerChemMIP(1,1), CMIP(1,1,1,1), GeoMIP(1,1,1), LUMIP(1), OMIP(1,1,1,1)",
    "experiments": "  abrupt-4xCO2 (CMIP:1,GeoMIP:1,OMIP:1), 1pctCO2 (CMIP:1,OMIP:1), historical (AerChemMIP:1,CMIP:1,GeoMIP:1,LUMIP:1,OMIP:1), piControl (AerChemMIP:1,CMIP:1,GeoMIP:1,OMIP:1)"
  },
  "fgco2abio": {
    "CCCma TS var name": null,
    "CCCma diag file": null,
    "CCCma hist file": "N/A",
    "CCCma check": "Do not provide, JRC",
    "MIPs (requesting)": "  AerChemMIP(1,1), CMIP(1,1,1,1), GeoMIP(1,1,1), LUMIP(1), OMIP(1,1,1,1)",
    "experiments": "  abrupt-4xCO2 (CMIP:1,GeoMIP:1,OMIP:1), 1pctCO2 (CMIP:1,OMIP:1), historical (AerChemMIP:1,CMIP:1,GeoMIP:1,LUMIP:1,OMIP:1), piControl (AerChemMIP:1,CMIP:1,GeoMIP:1,OMIP:1)"
  },
  "fgco2nat": {
    "CCCma TS var name": null,
    "CCCma diag file": null,
    "CCCma hist file": "N/A",
    "CCCma check": "Do not provide, JRC",
    "MIPs (requesting)": "  AerChemMIP(1,1), CMIP(1,1,1,1), GeoMIP(1,1,1), LUMIP(1), OMIP(1,1,1,1)",
    "experiments": "  abrupt-4xCO2 (CMIP:1,GeoMIP:1,OMIP:1), 1pctCO2 (CMIP:1,OMIP:1), historical (AerChemMIP:1,CMIP:1,GeoMIP:1,LUMIP:1,OMIP:1), piControl (AerChemMIP:1,CMIP:1,GeoMIP:1,OMIP:1)"
  },
  "graz": {
    "CCCma TS var name": "GRAZ1 GRAZ2",
    "CCCma diag file": "1y_diad_t",
    "CCCma optional deck": "sum2files",
    "CCCma units": "mol m-3 s-1",
    "CCCma hist file": "1m_diad_t",
    "MIPs (requesting)": "  AerChemMIP(3,3), CMIP(3,3,3,3), GeoMIP(3,3,3), LUMIP(3), OMIP(3,3,3,3), VIACSAB(1,1,1,2,2,2,2,2)",
    "experiments": "  abrupt-4xCO2 (CMIP:3,GeoMIP:3,OMIP:3), amip (VIACSAB:1,VIACSAB:2), 1pctCO2 (VIACSAB:1,CMIP:3,OMIP:3), historical (VIACSAB:1,VIACSAB:2,VIACSAB:2,AerChemMIP:3,CMIP:3,GeoMIP:3,LUMIP:3,OMIP:3), piControl (VIACSAB:2,VIACSAB:2,AerChemMIP:3,CMIP:3,GeoMIP:3,OMIP:3)"
  },
  "nh4": {
    "CCCma TS var name": "NH4",
    "CCCma diag file": "1y_ptrc_t",
    "CCCma optional deck": "mltby1em3",
    "CCCma units": "mmol m-3",
    "CCCma hist file": "1m_ptrc_t",
    "MIPs (requesting)": "  AerChemMIP(2,2), CMIP(2,2,2,2), GeoMIP(2,2,2), LUMIP(2), OMIP(2,2,2,2), VIACSAB(1,1,1,2,2,2,2,2,2)",
    "experiments": "  abrupt-4xCO2 (CMIP:2,GeoMIP:2,OMIP:2), amip (VIACSAB:1,VIACSAB:2), 1pctCO2 (VIACSAB:1,CMIP:2,OMIP:2,VIACSAB:2), historical (VIACSAB:1,AerChemMIP:2,CMIP:2,GeoMIP:2,LUMIP:2,OMIP:2,VIACSAB:2,VIACSAB:2), piControl (AerChemMIP:2,CMIP:2,GeoMIP:2,OMIP:2,VIACSAB:2,VIACSAB:2)"
  },
  "no3": {
    "CCCma TS var name": "NO3 ",
    "CCCma diag file": "1y_ptrc_t",
    "CCCma optional deck": "mltby1em3",
    "CCCma units": "mmol m-3 ",
    "CCCma hist file": "1m_ptrc_t",
    "CCCma comment": "*0.001",
    "MIPs (requesting)": "  AerChemMIP(1,1), CDRMIP(3,3,3,3,3), CMIP(1,1,1,1), GeoMIP(1,1,1), LUMIP(1), OMIP(1,1,1,1), PMIP(1,1,1,1)",
    "experiments": "  abrupt-4xCO2 (CMIP:1,GeoMIP:1,OMIP:1,PMIP:1,CDRMIP:3), amip (CDRMIP:3), 1pctCO2 (CMIP:1,OMIP:1,PMIP:1,CDRMIP:3), historical (AerChemMIP:1,CMIP:1,GeoMIP:1,LUMIP:1,OMIP:1,PMIP:1,CDRMIP:3), piControl (AerChemMIP:1,CMIP:1,GeoMIP:1,OMIP:1,PMIP:1,CDRMIP:3)"
  },
  "o2": {
    "CCCma TS var name": "O2 ",
    "CCCma diag file": "1y_ptrc_t",
    "CCCma optional deck": "mltby1em3",
    "CCCma units": "mmol m-3 ",
    "CCCma hist file": "1m_ptrc_t",
    "CCCma comment": "*0.001",
    "MIPs (requesting)": "  AerChemMIP(1,1), CDRMIP(3,3,3,3,3), CMIP(1,1,1,1), GeoMIP(1,1,1), LUMIP(1), OMIP(1,1,1,1), PMIP(1,1,1,1)",
    "experiments": "  abrupt-4xCO2 (CMIP:1,GeoMIP:1,OMIP:1,PMIP:1,CDRMIP:3), amip (CDRMIP:3), 1pctCO2 (CMIP:1,OMIP:1,PMIP:1,CDRMIP:3), historical (AerChemMIP:1,CMIP:1,GeoMIP:1,LUMIP:1,OMIP:1,PMIP:1,CDRMIP:3), piControl (AerChemMIP:1,CMIP:1,GeoMIP:1,OMIP:1,PMIP:1,CDRMIP:3)"
  },
  "o2sat": {
    "CCCma TS var name": "o2sol",
    "CCCma diag file": "1y_diad_t",
    "CCCma units": "mol m-3",
    "CCCma hist file": "1m_diad_t",
    "CCCma comment": "calculated offline",
    "priority": 2.0,
    "MIPs (requesting)": "  AerChemMIP(2,2), CMIP(2,2,2,2), GeoMIP(2,2,2), LUMIP(2), OMIP(2,2,2,2)",
    "experiments": "  abrupt-4xCO2 (CMIP:2,GeoMIP:2,OMIP:2), 1pctCO2 (CMIP:2,OMIP:2), historical (AerChemMIP:2,CMIP:2,GeoMIP:2,LUMIP:2,OMIP:2), piControl (AerChemMIP:2,CMIP:2,GeoMIP:2,OMIP:2)"
  },
  "ocontempdiff": {
    "CCCma TS var name": " ",
    "CCCma diag file": null,
    "CCCma optional deck": " ",
    "CCCma units": " ",
    "CCCma hist file": " N/A ",
    "CCCma check": "N/A, DY",
    "CCCma comment": " ",
    "MIPs (requesting)": "  AerChemMIP(3,3), CMIP(3,3,3,3), FAFMIP(1,1,1), GeoMIP(3,3,3), LUMIP(3), OMIP(3,3,3,3)",
    "experiments": "  abrupt-4xCO2 (FAFMIP:1,CMIP:3,GeoMIP:3,OMIP:3), 1pctCO2 (FAFMIP:1,CMIP:3,OMIP:3), historical (AerChemMIP:3,CMIP:3,GeoMIP:3,LUMIP:3,OMIP:3), piControl (FAFMIP:1,AerChemMIP:3,CMIP:3,GeoMIP:3,OMIP:3)"
  },
  "ocontempmint": {
    "CCCma TS var name": null,
    "CCCma diag file": null,
    "CCCma hist file": "N/A",
    "CCCma check": "N/A, DY",
    "priority": 3.0,
    "MIPs (requesting)": "  AerChemMIP(3,3), CMIP(3,3,3,3), GeoMIP(3,3,3), LUMIP(3), OMIP(3,3,3,3)",
    "experiments": "  abrupt-4xCO2 (CMIP:3,GeoMIP:3,OMIP:3), 1pctCO2 (CMIP:3,OMIP:3), historical (AerChemMIP:3,CMIP:3,GeoMIP:3,LUMIP:3,OMIP:3), piControl (AerChemMIP:3,CMIP:3,GeoMIP:3,OMIP:3)"
  },
  "ocontemppadvect": {
    "CCCma TS var name": " ",
    "CCCma diag file": null,
    "CCCma optional deck": " ",
    "CCCma units": " ",
    "CCCma hist file": " N/A ",
    "CCCma check": "N/A, DY",
    "CCCma comment": " ",
    "MIPs (requesting)": "  AerChemMIP(3,3), CMIP(3,3,3,3), FAFMIP(1,1,1), GeoMIP(3,3,3), LUMIP(3), OMIP(3,3,3,3)",
    "experiments": "  abrupt-4xCO2 (FAFMIP:1,CMIP:3,GeoMIP:3,OMIP:3), 1pctCO2 (FAFMIP:1,CMIP:3,OMIP:3), historical (AerChemMIP:3,CMIP:3,GeoMIP:3,LUMIP:3,OMIP:3), piControl (FAFMIP:1,AerChemMIP:3,CMIP:3,GeoMIP:3,OMIP:3)"
  },
  "ocontemppmdiff": {
    "CCCma TS var name": " ",
    "CCCma diag file": null,
    "CCCma optional deck": " ",
    "CCCma units": " ",
    "CCCma hist file": " N/A ",
    "CCCma check": "N/A, DY",
    "CCCma comment": " ",
    "MIPs (requesting)": "  AerChemMIP(3,3), CMIP(3,3,3,3), FAFMIP(1,1,1), GeoMIP(3,3,3), LUMIP(3), OMIP(3,3,3,3)",
    "experiments": "  abrupt-4xCO2 (FAFMIP:1,CMIP:3,GeoMIP:3,OMIP:3), 1pctCO2 (FAFMIP:1,CMIP:3,OMIP:3), historical (AerChemMIP:3,CMIP:3,GeoMIP:3,LUMIP:3,OMIP:3), piControl (FAFMIP:1,AerChemMIP:3,CMIP:3,GeoMIP:3,OMIP:3)"
  },
  "ocontemppsmadvect": {
    "CCCma TS var name": " ",
    "CCCma diag file": null,
    "CCCma optional deck": " ",
    "CCCma units": " ",
    "CCCma hist file": " N/A ",
    "CCCma check": "N/A, DY",
    "CCCma comment": " ",
    "MIPs (requesting)": "  AerChemMIP(3,3), CMIP(3,3,3,3), FAFMIP(1,1,1), GeoMIP(3,3,3), LUMIP(3), OMIP(3,3,3,3)",
    "experiments": "  abrupt-4xCO2 (FAFMIP:1,CMIP:3,GeoMIP:3,OMIP:3), 1pctCO2 (FAFMIP:1,CMIP:3,OMIP:3), historical (AerChemMIP:3,CMIP:3,GeoMIP:3,LUMIP:3,OMIP:3), piControl (FAFMIP:1,AerChemMIP:3,CMIP:3,GeoMIP:3,OMIP:3)"
  },
  "ocontemprmadvect": {
    "CCCma TS var name": null,
    "CCCma diag file": null,
    "CCCma hist file": "N/A",
    "CCCma check": "N/A, DY",
    "MIPs (requesting)": "  AerChemMIP(3,3), CMIP(3,3,3,3), FAFMIP(1,1,1), GeoMIP(3,3,3), LUMIP(3), OMIP(3,3,3,3)",
    "experiments": "  abrupt-4xCO2 (FAFMIP:1,CMIP:3,GeoMIP:3,OMIP:3), 1pctCO2 (FAFMIP:1,CMIP:3,OMIP:3), historical (AerChemMIP:3,CMIP:3,GeoMIP:3,LUMIP:3,OMIP:3), piControl (FAFMIP:1,AerChemMIP:3,CMIP:3,GeoMIP:3,OMIP:3)"
  },
  "ocontemptend": {
    "CCCma TS var name": " ",
    "CCCma diag file": null,
    "CCCma optional deck": " ",
    "CCCma units": " ",
    "CCCma hist file": " N/A ",
    "CCCma check": "N/A, DY",
    "CCCma comment": " ",
    "MIPs (requesting)": "  AerChemMIP(3,3), CMIP(3,3,3,3), FAFMIP(1,1,1), GeoMIP(3,3,3), LUMIP(3), OMIP(3,3,3,3)",
    "experiments": "  abrupt-4xCO2 (FAFMIP:1,CMIP:3,GeoMIP:3,OMIP:3), 1pctCO2 (FAFMIP:1,CMIP:3,OMIP:3), historical (AerChemMIP:3,CMIP:3,GeoMIP:3,LUMIP:3,OMIP:3), piControl (FAFMIP:1,AerChemMIP:3,CMIP:3,GeoMIP:3,OMIP:3)"
  },
  "opottempdiff": {
    "CCCma TS var name": " ttrd_zdfp ",
    "CCCma diag file": "1y_grid_t",
    "CCCma optional deck": "mltby_rhozero_cpoean_e3t",
    "CCCma units": " degC s-1 ",
    "CCCma hist file": "1y_grid_t_ar6",
    "CCCma check": "DY; OS",
    "CCCma comment": " 1. Added by DY (set key_trdtra & key_diaar5). 2. Post-processing: (1) unit conversion ( * (rhozero * cpocean * e3t ) ); (2) archive rhozero & cpocean in the same file.",
    "CCCma NetCDF comment": "rhozero = 1035 kg/m3; cpocean = 4000 J/(kgC)",
    "MIPs (requesting)": "  AerChemMIP(3,3), CMIP(3,3,3,3), FAFMIP(1,1,1), GeoMIP(3,3,3), LUMIP(3), OMIP(3,3,3,3)",
    "experiments": "  abrupt-4xCO2 (FAFMIP:1,CMIP:3,GeoMIP:3,OMIP:3), 1pctCO2 (FAFMIP:1,CMIP:3,OMIP:3), historical (AerChemMIP:3,CMIP:3,GeoMIP:3,LUMIP:3,OMIP:3), piControl (FAFMIP:1,AerChemMIP:3,CMIP:3,GeoMIP:3,OMIP:3)"
  },
  "opottempmint": {
    "CCCma TS var name": "opottempmint",
    "CCCma diag file": "1m_grid_t",
    "CCCma optional deck": "meanm2y",
    "CCCma units": "kg m-2 degC ",
    "CCCma hist file": "1m_grid_t_ar6 ",
    "CCCma check": "DY",
    "CCCma comment": "1. Added by DY. 2. Post-processing: 1m -> 1y",
    "priority": 3.0,
    "MIPs (requesting)": "  AerChemMIP(3,3), CMIP(3,3,3,3), GeoMIP(3,3,3), LUMIP(3), OMIP(3,3,3,3)",
    "experiments": "  abrupt-4xCO2 (CMIP:3,GeoMIP:3,OMIP:3), 1pctCO2 (CMIP:3,OMIP:3), historical (AerChemMIP:3,CMIP:3,GeoMIP:3,LUMIP:3,OMIP:3), piControl (AerChemMIP:3,CMIP:3,GeoMIP:3,OMIP:3)"
  },
  "opottemppadvect": {
    "CCCma TS var name": " ttrd_eiv ",
    "CCCma diag file": "1y_grid_t",
    "CCCma optional deck": "mltby_rhozero_cpoean_e3t",
    "CCCma units": " degC s-1 ",
    "CCCma hist file": "1y_grid_t_ar6 ",
    "CCCma check": "DY; OS",
    "CCCma comment": " 1. Added by DY (set key_trdtra & key_diaar5). 2. Post-processing: (unit conversion ( * (rhozero * cpocean * e3t ) ); (2) archive rhozero & cpocean in the same file.",
    "CCCma NetCDF comment": "rhozero = 1035 kg/m3; cpocean = 4000 J/(kgC)",
    "MIPs (requesting)": "  AerChemMIP(3,3), CMIP(3,3,3,3), FAFMIP(1,1,1), GeoMIP(3,3,3), LUMIP(3), OMIP(3,3,3,3)",
    "experiments": "  abrupt-4xCO2 (FAFMIP:1,CMIP:3,GeoMIP:3,OMIP:3), 1pctCO2 (FAFMIP:1,CMIP:3,OMIP:3), historical (AerChemMIP:3,CMIP:3,GeoMIP:3,LUMIP:3,OMIP:3), piControl (FAFMIP:1,AerChemMIP:3,CMIP:3,GeoMIP:3,OMIP:3)"
  },
  "opottemppmdiff": {
    "CCCma TS var name": " ttrd_ldf ttrd_zdf ttrd_zdfp ",
    "CCCma diag file": "1y_grid_t",
    "CCCma optional deck": "sum2sub1_mltby_rhozero_cpoean_e3t",
    "CCCma units": " degC s-1 ",
    "CCCma hist file": "1y_grid_t_ar6 ",
    "CCCma check": "DY; OS",
    "CCCma comment": " 1. Added by DY (set key_trdtra & key_diaar5). 2. Post-processing: (1) ttrd_ldf + ttrd_zdf - ttrd_zdfp; (2) unit conversion ( * (rhozero * cpocean * e3t ) ); (3) archive rhozero & cpocean in the same file.",
    "CCCma NetCDF comment": "rhozero = 1035 kg/m3; cpocean = 4000 J/(kgC)",
    "MIPs (requesting)": "  AerChemMIP(3,3), CMIP(3,3,3,3), FAFMIP(1,1,1), GeoMIP(3,3,3), LUMIP(3), OMIP(3,3,3,3)",
    "experiments": "  abrupt-4xCO2 (FAFMIP:1,CMIP:3,GeoMIP:3,OMIP:3), 1pctCO2 (FAFMIP:1,CMIP:3,OMIP:3), historical (AerChemMIP:3,CMIP:3,GeoMIP:3,LUMIP:3,OMIP:3), piControl (FAFMIP:1,AerChemMIP:3,CMIP:3,GeoMIP:3,OMIP:3)"
  },
  "opottemppsmadvect": {
    "CCCma TS var name": null,
    "CCCma diag file": null,
    "CCCma hist file": "N/A ",
    "CCCma check": "N/A, DY",
    "MIPs (requesting)": "  AerChemMIP(3,3), CMIP(3,3,3,3), FAFMIP(1,1,1), GeoMIP(3,3,3), LUMIP(3), OMIP(3,3,3,3)",
    "experiments": "  abrupt-4xCO2 (FAFMIP:1,CMIP:3,GeoMIP:3,OMIP:3), 1pctCO2 (FAFMIP:1,CMIP:3,OMIP:3), historical (AerChemMIP:3,CMIP:3,GeoMIP:3,LUMIP:3,OMIP:3), piControl (FAFMIP:1,AerChemMIP:3,CMIP:3,GeoMIP:3,OMIP:3)"
  },
  "opottemprmadvect": {
    "CCCma TS var name": "ttrd_xad ttrd_yad ttrd_zad ",
    "CCCma diag file": "1y_grid_t",
    "CCCma optional deck": "sum3_mltby_rhozero_cpoean_e3t",
    "CCCma units": "degC s-1",
    "CCCma hist file": "1y_grid_t_ar6",
    "CCCma check": "DY; OS",
    "CCCma comment": "1. Added by DY (set key_trdtra & key_diaar5). 2. Post-processing: (1) ttrd_xad + ttrd_yad + ttrd_zad; (2) unit conversion ( * (rhozero * cpocean * e3t ) ); (3) archive rhozero & cpocean in the same file.",
    "CCCma NetCDF comment": "rhozero = 1035 kg/m3; cpocean = 4000 J/(kgC)",
    "MIPs (requesting)": "  AerChemMIP(3,3), CMIP(3,3,3,3), FAFMIP(1,1,1), GeoMIP(3,3,3), LUMIP(3), OMIP(3,3,3,3)",
    "experiments": "  abrupt-4xCO2 (FAFMIP:1,CMIP:3,GeoMIP:3,OMIP:3), 1pctCO2 (FAFMIP:1,CMIP:3,OMIP:3), historical (AerChemMIP:3,CMIP:3,GeoMIP:3,LUMIP:3,OMIP:3), piControl (FAFMIP:1,AerChemMIP:3,CMIP:3,GeoMIP:3,OMIP:3)"
  },
  "opottemptend": {
    "CCCma TS var name": "opottemptend ",
    "CCCma diag file": "1y_grid_t",
    "CCCma optional deck": " ",
    "CCCma units": " W m-2 ",
    "CCCma hist file": "1y_grid_t_ar6",
    "CCCma check": "DY; OS",
    "CCCma comment": "1. Added by DY in offline computation routines for CanESM5; Implemented by DY in xnemo for nemo-only. 2. Post-processing: archive rhozero & cpocean in the same file.",
    "CCCma NetCDF comment": "rhozero = 1035 kg/m3; cpocean = 4000 J/(kgC)",
    "MIPs (requesting)": "  AerChemMIP(3,3), CMIP(3,3,3,3), FAFMIP(1,1,1), GeoMIP(3,3,3), LUMIP(3), OMIP(3,3,3,3)",
    "experiments": "  abrupt-4xCO2 (FAFMIP:1,CMIP:3,GeoMIP:3,OMIP:3), 1pctCO2 (FAFMIP:1,CMIP:3,OMIP:3), historical (AerChemMIP:3,CMIP:3,GeoMIP:3,LUMIP:3,OMIP:3), piControl (FAFMIP:1,AerChemMIP:3,CMIP:3,GeoMIP:3,OMIP:3)"
  },
  "osaltdiff": {
    "CCCma TS var name": " strd_zdfp ",
    "CCCma diag file": "1y_grid_t",
    "CCCma optional deck": "mltby_rhozero_1em3_e3t",
    "CCCma units": " 1e-3 s-1 ",
    "CCCma hist file": "1y_grid_t_ar6",
    "CCCma check": "DY; OS",
    "CCCma comment": " 1. Added by DY (set key_trdtra & key_diaar5). 2. Post-processing: (1) unit conversion ( 1.e-3 * rhozero * e3t ); (2) archive rhozero in the same file.",
    "CCCma NetCDF comment": "rhozero = 1035 kg/m3",
    "MIPs (requesting)": "  AerChemMIP(3,3), CMIP(3,3,3,3), FAFMIP(1,1,1), GeoMIP(3,3,3), LUMIP(3), OMIP(3,3,3,3)",
    "experiments": "  abrupt-4xCO2 (FAFMIP:1,CMIP:3,GeoMIP:3,OMIP:3), 1pctCO2 (FAFMIP:1,CMIP:3,OMIP:3), historical (AerChemMIP:3,CMIP:3,GeoMIP:3,LUMIP:3,OMIP:3), piControl (FAFMIP:1,AerChemMIP:3,CMIP:3,GeoMIP:3,OMIP:3)"
  },
  "osaltpadvect": {
    "CCCma TS var name": " strd_eiv ",
    "CCCma diag file": "1y_grid_t",
    "CCCma optional deck": "mltby_rhozero_1em3_e3t",
    "CCCma units": " 1e-3 s-1 ",
    "CCCma hist file": "1y_grid_t_ar6 ",
    "CCCma check": "DY; OS",
    "CCCma comment": " 1. Added by DY (set key_trdtra & key_diaar5). 2. Post-processing: (1) unit conversion ( 1.e-3 * rhozero * e3t ); (2) archive rhozero in the same file.",
    "CCCma NetCDF comment": "rhozero = 1035 kg/m3",
    "MIPs (requesting)": "  AerChemMIP(3,3), CMIP(3,3,3,3), FAFMIP(1,1,1), GeoMIP(3,3,3), LUMIP(3), OMIP(3,3,3,3)",
    "experiments": "  abrupt-4xCO2 (FAFMIP:1,CMIP:3,GeoMIP:3,OMIP:3), 1pctCO2 (FAFMIP:1,CMIP:3,OMIP:3), historical (AerChemMIP:3,CMIP:3,GeoMIP:3,LUMIP:3,OMIP:3), piControl (FAFMIP:1,AerChemMIP:3,CMIP:3,GeoMIP:3,OMIP:3)"
  },
  "osaltpmdiff": {
    "CCCma TS var name": " strd_ldf strd_zdf strd_zdfp ",
    "CCCma diag file": "1y_grid_t",
    "CCCma optional deck": "sum2sub1_mltby_rhozero_1em3_e3t",
    "CCCma units": " 1e-3 s-1 ",
    "CCCma hist file": "1y_grid_t_ar6",
    "CCCma check": "DY; OS",
    "CCCma comment": " 1. Added by DY (set key_trdtra & key_diaar5). 2. Post-processing: (1) strd_ldf + strd_zdf - strd_zdfp; (2) unit conversion ( * 1.e-3 * rhozero * e3t ); (3) archive rhozero in the same file.",
    "CCCma NetCDF comment": "rhozero = 1035 kg/m3",
    "MIPs (requesting)": "  AerChemMIP(3,3), CMIP(3,3,3,3), FAFMIP(1,1,1), GeoMIP(3,3,3), LUMIP(3), OMIP(3,3,3,3)",
    "experiments": "  abrupt-4xCO2 (FAFMIP:1,CMIP:3,GeoMIP:3,OMIP:3), 1pctCO2 (FAFMIP:1,CMIP:3,OMIP:3), historical (AerChemMIP:3,CMIP:3,GeoMIP:3,LUMIP:3,OMIP:3), piControl (FAFMIP:1,AerChemMIP:3,CMIP:3,GeoMIP:3,OMIP:3)"
  },
  "osaltpsmadvect": {
    "CCCma TS var name": " ",
    "CCCma diag file": null,
    "CCCma optional deck": " ",
    "CCCma units": " ",
    "CCCma hist file": "N/A ",
    "CCCma check": "N/A, DY",
    "CCCma comment": " ",
    "MIPs (requesting)": "  AerChemMIP(3,3), CMIP(3,3,3,3), FAFMIP(1,1,1), GeoMIP(3,3,3), LUMIP(3), OMIP(3,3,3,3)",
    "experiments": "  abrupt-4xCO2 (FAFMIP:1,CMIP:3,GeoMIP:3,OMIP:3), 1pctCO2 (FAFMIP:1,CMIP:3,OMIP:3), historical (AerChemMIP:3,CMIP:3,GeoMIP:3,LUMIP:3,OMIP:3), piControl (FAFMIP:1,AerChemMIP:3,CMIP:3,GeoMIP:3,OMIP:3)"
  },
  "osaltrmadvect": {
    "CCCma TS var name": "strd_xad strd_yad strd_zad ",
    "CCCma diag file": "1y_grid_t",
    "CCCma optional deck": "sum3_mltby_rhozero_1em3_e3t",
    "CCCma units": "1e-3 s-1",
    "CCCma hist file": "1y_grid_t_ar6",
    "CCCma check": "DY; OS",
    "CCCma comment": "1. Added by DY (set key_trdtra & key_diaar5). 2. Post-processing: (1) strd_xad + strd_yad + strd_zad; (2) unit conversion ( * 1.e-3 * rhozero * e3t ); (3) archive rhozero in the same file.",
    "CCCma NetCDF comment": "rhozero = 1035 kg/m3",
    "MIPs (requesting)": "  AerChemMIP(3,3), CMIP(3,3,3,3), FAFMIP(1,1,1), GeoMIP(3,3,3), LUMIP(3), OMIP(3,3,3,3)",
    "experiments": "  abrupt-4xCO2 (FAFMIP:1,CMIP:3,GeoMIP:3,OMIP:3), 1pctCO2 (FAFMIP:1,CMIP:3,OMIP:3), historical (AerChemMIP:3,CMIP:3,GeoMIP:3,LUMIP:3,OMIP:3), piControl (FAFMIP:1,AerChemMIP:3,CMIP:3,GeoMIP:3,OMIP:3)"
  },
  "osalttend": {
    "CCCma TS var name": "osalttend ",
    "CCCma diag file": "1y_grid_t",
    "CCCma optional deck": " ",
    "CCCma units": " kg m-2 s-1 ",
    "CCCma hist file": "1y_grid_t_ar6",
    "CCCma check": "DY; OS",
    "CCCma comment": "1. Added by DY in offline computation routines for CanESM5; Implemented by DY in xnemo for nemo-only. 2. Post-processing; (1) archive rhozero in the same file.",
    "CCCma NetCDF comment": "rhozero = 1035 kg/m3",
    "MIPs (requesting)": "  AerChemMIP(3,3), CMIP(3,3,3,3), FAFMIP(1,1,1), GeoMIP(3,3,3), LUMIP(3), OMIP(3,3,3,3)",
    "experiments": "  abrupt-4xCO2 (FAFMIP:1,CMIP:3,GeoMIP:3,OMIP:3), 1pctCO2 (FAFMIP:1,CMIP:3,OMIP:3), historical (AerChemMIP:3,CMIP:3,GeoMIP:3,LUMIP:3,OMIP:3), piControl (FAFMIP:1,AerChemMIP:3,CMIP:3,GeoMIP:3,OMIP:3)"
  },
  "parag": {
    "CCCma TS var name": null,
    "CCCma diag file": null,
    "CCCma hist file": "N/A",
    "CCCma check": "Do not provide, JRC",
    "MIPs (requesting)": "  AerChemMIP(2,2), CMIP(2,2,2,2), GeoMIP(2,2,2), LUMIP(2), OMIP(2,2,2,2), VIACSAB(1,1,1,2,2,2,2)",
    "experiments": "  abrupt-4xCO2 (CMIP:2,GeoMIP:2,OMIP:2), amip (VIACSAB:1,VIACSAB:2), 1pctCO2 (VIACSAB:1,CMIP:2,OMIP:2), historical (VIACSAB:1,AerChemMIP:2,CMIP:2,GeoMIP:2,LUMIP:2,OMIP:2,VIACSAB:2,VIACSAB:2), piControl (AerChemMIP:2,CMIP:2,GeoMIP:2,OMIP:2,VIACSAB:2)"
  },
  "pbfe": {
    "CCCma TS var name": "PFeN PFeD",
    "CCCma diag file": "1y_diad_t",
    "CCCma optional deck": "sum2_mltby1em6",
    "CCCma units": "umol m-3 s-1",
    "CCCma hist file": "1m_diad_t",
    "MIPs (requesting)": "  AerChemMIP(2,2), CMIP(2,2,2,2), GeoMIP(2,2,2), LUMIP(2), OMIP(2,2,2,2), VIACSAB(1,1,1,2,2,2,2)",
    "experiments": "  abrupt-4xCO2 (CMIP:2,GeoMIP:2,OMIP:2), amip (VIACSAB:1,VIACSAB:2), 1pctCO2 (VIACSAB:1,CMIP:2,OMIP:2), historical (VIACSAB:1,AerChemMIP:2,CMIP:2,GeoMIP:2,LUMIP:2,OMIP:2,VIACSAB:2,VIACSAB:2), piControl (AerChemMIP:2,CMIP:2,GeoMIP:2,OMIP:2,VIACSAB:2)"
  },
  "pbsi": {
    "CCCma TS var name": null,
    "CCCma diag file": null,
    "CCCma optional deck": "  ",
    "CCCma hist file": "N/A",
    "CCCma check": "Do not provide, JRC",
    "MIPs (requesting)": "  AerChemMIP(2,2), CMIP(2,2,2,2), GeoMIP(2,2,2), LUMIP(2), OMIP(2,2,2,2), VIACSAB(1,1,1,2,2,2,2)",
    "experiments": "  abrupt-4xCO2 (CMIP:2,GeoMIP:2,OMIP:2), amip (VIACSAB:1,VIACSAB:2), 1pctCO2 (VIACSAB:1,CMIP:2,OMIP:2), historical (VIACSAB:1,AerChemMIP:2,CMIP:2,GeoMIP:2,LUMIP:2,OMIP:2,VIACSAB:2,VIACSAB:2), piControl (AerChemMIP:2,CMIP:2,GeoMIP:2,OMIP:2,VIACSAB:2)"
  },
  "pcalc": {
    "CCCma TS var name": "PCAL",
    "CCCma diag file": "1y_diad_t",
    "CCCma optional deck": "  ",
    "CCCma units": "mol m-3 s-1",
    "CCCma hist file": "1m_diad_t",
    "MIPs (requesting)": "  AerChemMIP(2,2), CMIP(2,2,2,2), GeoMIP(2,2,2), LUMIP(2), OMIP(2,2,2,2), VIACSAB(1,1,1,2,2,2,2)",
    "experiments": "  abrupt-4xCO2 (CMIP:2,GeoMIP:2,OMIP:2), amip (VIACSAB:1,VIACSAB:2), 1pctCO2 (VIACSAB:1,CMIP:2,OMIP:2), historical (VIACSAB:1,AerChemMIP:2,CMIP:2,GeoMIP:2,LUMIP:2,OMIP:2,VIACSAB:2,VIACSAB:2), piControl (AerChemMIP:2,CMIP:2,GeoMIP:2,OMIP:2,VIACSAB:2)"
  },
  "ph": {
    "CCCma TS var name": "pH3D",
    "CCCma diag file": "1y_diad_t",
    "CCCma units": 1.0,
    "CCCma hist file": "1m_diad_t",
    "CCCma comment": "calculated offline",
    "MIPs (requesting)": "  AerChemMIP(1,1), CDRMIP(2,2,2,2,2), CMIP(1,1,1,1), GeoMIP(1,1,1), LUMIP(1), OMIP(1,1,1,1), VIACSAB(1,1,1,1,2,2,2,2)",
    "experiments": "  abrupt-4xCO2 (CMIP:1,GeoMIP:1,OMIP:1,CDRMIP:2), amip (VIACSAB:1,CDRMIP:2,VIACSAB:2), 1pctCO2 (CMIP:1,OMIP:1,VIACSAB:1,CDRMIP:2), historical (AerChemMIP:1,CMIP:1,GeoMIP:1,LUMIP:1,OMIP:1,VIACSAB:1,CDRMIP:2,VIACSAB:2,VIACSAB:2), piControl (AerChemMIP:1,CMIP:1,GeoMIP:1,OMIP:1,VIACSAB:1,CDRMIP:2,VIACSAB:2)"
  },
  "phabio": {
    "CCCma TS var name": null,
    "CCCma diag file": null,
    "CCCma hist file": "N/A",
    "CCCma check": "Do not provide, JRC",
    "MIPs (requesting)": "  AerChemMIP(1,1), CMIP(1,1,1,1), GeoMIP(1,1,1), LUMIP(1), OMIP(1,1,1,1)",
    "experiments": "  abrupt-4xCO2 (CMIP:1,GeoMIP:1,OMIP:1), 1pctCO2 (CMIP:1,OMIP:1), historical (AerChemMIP:1,CMIP:1,GeoMIP:1,LUMIP:1,OMIP:1), piControl (AerChemMIP:1,CMIP:1,GeoMIP:1,OMIP:1)"
  },
  "phnat": {
    "CCCma TS var name": null,
    "CCCma diag file": null,
    "CCCma hist file": "N/A",
    "CCCma check": "Do not provide, JRC",
    "MIPs (requesting)": "  AerChemMIP(1,1), CMIP(1,1,1,1), GeoMIP(1,1,1), LUMIP(1), OMIP(1,1,1,1)",
    "experiments": "  abrupt-4xCO2 (CMIP:1,GeoMIP:1,OMIP:1), 1pctCO2 (CMIP:1,OMIP:1), historical (AerChemMIP:1,CMIP:1,GeoMIP:1,LUMIP:1,OMIP:1), piControl (AerChemMIP:1,CMIP:1,GeoMIP:1,OMIP:1)"
  },
  "phyc": {
    "CCCma TS var name": "PHYC PHY2C",
    "CCCma diag file": "1y_ptrc_t",
    "CCCma optional deck": "sum2_mltby1em3",
    "CCCma units": "mmol m-3 ",
    "CCCma hist file": "1m_ptrc_t",
    "CCCma comment": "*0.001",
    "priority": 2.0,
    "MIPs (requesting)": "  AerChemMIP(2,2), CDRMIP(2,2,2,2,2), CMIP(2,2,2,2), GeoMIP(2,2,2), LUMIP(2), OMIP(2,2,2,2), PMIP(2,2,2,2)",
    "experiments": "  abrupt-4xCO2 (CDRMIP:2,CMIP:2,GeoMIP:2,OMIP:2,PMIP:2), amip (CDRMIP:2), 1pctCO2 (CDRMIP:2,CMIP:2,OMIP:2,PMIP:2), historical (AerChemMIP:2,CDRMIP:2,CMIP:2,GeoMIP:2,LUMIP:2,OMIP:2,PMIP:2), piControl (AerChemMIP:2,CDRMIP:2,CMIP:2,GeoMIP:2,OMIP:2,PMIP:2)"
  },
  "phycalc": {
    "CCCma TS var name": null,
    "CCCma diag file": null,
    "CCCma hist file": "N/A",
    "CCCma check": "Do not provide, JRC",
    "MIPs (requesting)": "  AerChemMIP(3,3), CMIP(3,3,3,3), GeoMIP(3,3,3), LUMIP(3), OMIP(3,3,3,3), PMIP(3,3,3,3), VIACSAB(1,1,1,2,2,2,2,2,2)",
    "experiments": "  abrupt-4xCO2 (CMIP:3,GeoMIP:3,OMIP:3,PMIP:3), amip (VIACSAB:1,VIACSAB:2), 1pctCO2 (VIACSAB:1,VIACSAB:2,CMIP:3,OMIP:3,PMIP:3), historical (VIACSAB:1,VIACSAB:2,VIACSAB:2,AerChemMIP:3,CMIP:3,GeoMIP:3,LUMIP:3,OMIP:3,PMIP:3), piControl (VIACSAB:2,VIACSAB:2,AerChemMIP:3,CMIP:3,GeoMIP:3,OMIP:3,PMIP:3)"
  },
  "phydiat": {
    "CCCma TS var name": "PHY2C",
    "CCCma diag file": "1y_ptrc_t",
    "CCCma optional deck": "mltby1em3",
    "CCCma units": "mmol m-3",
    "CCCma hist file": "1m_ptrc_t",
    "MIPs (requesting)": "  AerChemMIP(3,3), CMIP(3,3,3,3), GeoMIP(3,3,3), LUMIP(3), OMIP(3,3,3,3), PMIP(3,3,3,3), VIACSAB(1,1,1,2,2,2,2,2)",
    "experiments": "  abrupt-4xCO2 (CMIP:3,GeoMIP:3,OMIP:3,PMIP:3), amip (VIACSAB:1,VIACSAB:2), 1pctCO2 (VIACSAB:1,CMIP:3,OMIP:3,PMIP:3), historical (VIACSAB:1,VIACSAB:2,VIACSAB:2,AerChemMIP:3,CMIP:3,GeoMIP:3,LUMIP:3,OMIP:3,PMIP:3), piControl (VIACSAB:2,VIACSAB:2,AerChemMIP:3,CMIP:3,GeoMIP:3,OMIP:3,PMIP:3)"
  },
  "phydiaz": {
    "CCCma TS var name": null,
    "CCCma diag file": null,
    "CCCma hist file": "N/A",
    "CCCma check": "Do not provide, JRC",
    "MIPs (requesting)": "  AerChemMIP(3,3), CMIP(3,3,3,3), GeoMIP(3,3,3), LUMIP(3), OMIP(3,3,3,3), PMIP(3,3,3,3), VIACSAB(1,1,1,2,2,2,2,2,2)",
    "experiments": "  abrupt-4xCO2 (CMIP:3,GeoMIP:3,OMIP:3,PMIP:3), amip (VIACSAB:1,VIACSAB:2), 1pctCO2 (VIACSAB:1,VIACSAB:2,CMIP:3,OMIP:3,PMIP:3), historical (VIACSAB:1,VIACSAB:2,VIACSAB:2,AerChemMIP:3,CMIP:3,GeoMIP:3,LUMIP:3,OMIP:3,PMIP:3), piControl (VIACSAB:2,VIACSAB:2,AerChemMIP:3,CMIP:3,GeoMIP:3,OMIP:3,PMIP:3)"
  },
  "phyfe": {
    "CCCma TS var name": "PHYFe PHY2Fe",
    "CCCma diag file": "1y_ptrc_t",
    "CCCma optional deck": "sum2_mltby1em9",
    "CCCma units": "nmol m-3",
    "CCCma hist file": "1m_ptrc_t",
    "CCCma comment": "unit in ptrc file metadata is swrong",
    "priority": 2.0,
    "MIPs (requesting)": "  AerChemMIP(2,2), CMIP(2,2,2,2), GeoMIP(2,2,2), LUMIP(2), OMIP(2,2,2,2)",
    "experiments": "  abrupt-4xCO2 (CMIP:2,GeoMIP:2,OMIP:2), 1pctCO2 (CMIP:2,OMIP:2), historical (AerChemMIP:2,CMIP:2,GeoMIP:2,LUMIP:2,OMIP:2), piControl (AerChemMIP:2,CMIP:2,GeoMIP:2,OMIP:2)"
  },
  "phymisc": {
    "CCCma TS var name": "PHYC",
    "CCCma diag file": "1y_ptrc_t",
    "CCCma optional deck": "mltby1em3",
    "CCCma units": "mmol m-3",
    "CCCma hist file": "1m_ptrc_t",
    "MIPs (requesting)": "  AerChemMIP(3,3), CMIP(3,3,3,3), GeoMIP(3,3,3), LUMIP(3), OMIP(3,3,3,3), PMIP(3,3,3,3), VIACSAB(1,1,1,2,2,2,2,2,2)",
    "experiments": "  abrupt-4xCO2 (CMIP:3,GeoMIP:3,OMIP:3,PMIP:3), amip (VIACSAB:1,VIACSAB:2), 1pctCO2 (VIACSAB:1,VIACSAB:2,CMIP:3,OMIP:3,PMIP:3), historical (VIACSAB:1,VIACSAB:2,VIACSAB:2,AerChemMIP:3,CMIP:3,GeoMIP:3,LUMIP:3,OMIP:3,PMIP:3), piControl (VIACSAB:2,VIACSAB:2,AerChemMIP:3,CMIP:3,GeoMIP:3,OMIP:3,PMIP:3)"
  },
  "phyn": {
    "CCCma TS var name": "PHYN PHY2N",
    "CCCma diag file": "1y_ptrc_t",
    "CCCma optional deck": "sum2_mltby1em3",
    "CCCma units": "mmol m-3 ",
    "CCCma hist file": "1m_ptrc_t",
    "CCCma comment": "*0.001",
    "priority": 2.0,
    "MIPs (requesting)": "  AerChemMIP(2,2), CMIP(2,2,2,2), GeoMIP(2,2,2), LUMIP(2), OMIP(2,2,2,2)",
    "experiments": "  abrupt-4xCO2 (CMIP:2,GeoMIP:2,OMIP:2), 1pctCO2 (CMIP:2,OMIP:2), historical (AerChemMIP:2,CMIP:2,GeoMIP:2,LUMIP:2,OMIP:2), piControl (AerChemMIP:2,CMIP:2,GeoMIP:2,OMIP:2)"
  },
  "phyp": {
    "CCCma TS var name": null,
    "CCCma diag file": null,
    "CCCma hist file": "N/A",
    "CCCma check": "Do not provide, JRC",
    "priority": 2.0,
    "MIPs (requesting)": "  AerChemMIP(2,2), CMIP(2,2,2,2), GeoMIP(2,2,2), LUMIP(2), OMIP(2,2,2,2)",
    "experiments": "  abrupt-4xCO2 (CMIP:2,GeoMIP:2,OMIP:2), 1pctCO2 (CMIP:2,OMIP:2), historical (AerChemMIP:2,CMIP:2,GeoMIP:2,LUMIP:2,OMIP:2), piControl (AerChemMIP:2,CMIP:2,GeoMIP:2,OMIP:2)"
  },
  "phypico": {
    "CCCma TS var name": null,
    "CCCma diag file": null,
    "CCCma optional deck": "  ",
    "CCCma hist file": "N/A",
    "CCCma check": "Do not provide, JRC",
    "MIPs (requesting)": "  AerChemMIP(3,3), CMIP(3,3,3,3), GeoMIP(3,3,3), LUMIP(3), OMIP(3,3,3,3), PMIP(3,3,3,3), VIACSAB(1,1,1,2,2,2,2,2,2)",
    "experiments": "  abrupt-4xCO2 (CMIP:3,GeoMIP:3,OMIP:3,PMIP:3), amip (VIACSAB:1,VIACSAB:2), 1pctCO2 (VIACSAB:1,VIACSAB:2,CMIP:3,OMIP:3,PMIP:3), historical (VIACSAB:1,VIACSAB:2,VIACSAB:2,AerChemMIP:3,CMIP:3,GeoMIP:3,LUMIP:3,OMIP:3,PMIP:3), piControl (VIACSAB:2,VIACSAB:2,AerChemMIP:3,CMIP:3,GeoMIP:3,OMIP:3,PMIP:3)"
  },
  "physi": {
    "CCCma TS var name": null,
    "CCCma diag file": null,
    "CCCma hist file": "N/A",
    "CCCma check": "Do not provide, JRC",
    "priority": 2.0,
    "MIPs (requesting)": "  AerChemMIP(2,2), CMIP(2,2,2,2), GeoMIP(2,2,2), LUMIP(2), OMIP(2,2,2,2)",
    "experiments": "  abrupt-4xCO2 (CMIP:2,GeoMIP:2,OMIP:2), 1pctCO2 (CMIP:2,OMIP:2), historical (AerChemMIP:2,CMIP:2,GeoMIP:2,LUMIP:2,OMIP:2), piControl (AerChemMIP:2,CMIP:2,GeoMIP:2,OMIP:2)"
  },
  "pnitrate": {
    "CCCma TS var name": null,
    "CCCma diag file": null,
    "CCCma optional deck": "  ",
    "CCCma hist file": "N/A",
    "CCCma check": "Do not provide, JRC",
    "MIPs (requesting)": "  AerChemMIP(2,2), CMIP(2,2,2,2), GeoMIP(2,2,2), LUMIP(2), OMIP(2,2,2,2), VIACSAB(1,1,1,2,2,2,2)",
    "experiments": "  abrupt-4xCO2 (CMIP:2,GeoMIP:2,OMIP:2), amip (VIACSAB:1,VIACSAB:2), 1pctCO2 (VIACSAB:1,CMIP:2,OMIP:2), historical (VIACSAB:1,AerChemMIP:2,CMIP:2,GeoMIP:2,LUMIP:2,OMIP:2,VIACSAB:2,VIACSAB:2), piControl (AerChemMIP:2,CMIP:2,GeoMIP:2,OMIP:2,VIACSAB:2)"
  },
  "po4": {
    "CCCma TS var name": null,
    "CCCma diag file": null,
    "CCCma units": "  ",
    "CCCma hist file": "N/A",
    "CCCma check": "Do not provide, JRC",
    "MIPs (requesting)": "  AerChemMIP(1,1), CDRMIP(3,3,3,3,3), CMIP(1,1,1,1), GeoMIP(1,1,1), LUMIP(1), OMIP(1,1,1,1), PMIP(1,1,1,1), VIACSAB(1,1,1,2,2,2,2,2,2)",
    "experiments": "  abrupt-4xCO2 (CMIP:1,GeoMIP:1,OMIP:1,PMIP:1,CDRMIP:3), amip (VIACSAB:1,VIACSAB:2,CDRMIP:3), 1pctCO2 (CMIP:1,OMIP:1,PMIP:1,VIACSAB:1,VIACSAB:2,CDRMIP:3), historical (AerChemMIP:1,CMIP:1,GeoMIP:1,LUMIP:1,OMIP:1,PMIP:1,VIACSAB:1,VIACSAB:2,VIACSAB:2,CDRMIP:3), piControl (AerChemMIP:1,CMIP:1,GeoMIP:1,OMIP:1,PMIP:1,VIACSAB:2,VIACSAB:2,CDRMIP:3)"
  },
  "pon": {
    "CCCma TS var name": "POC GOC",
    "CCCma diag file": "1y_ptrc_t",
    "CCCma optional deck": "sum2_mltbyem3_mltby16_div106",
    "CCCma units": "mmolC m-3 ",
    "CCCma hist file": "1m_ptrc_t",
    "CCCma comment": "*0.001",
    "priority": 2.0,
    "MIPs (requesting)": "  AerChemMIP(2,2), CMIP(2,2,2,2), GeoMIP(2,2,2), LUMIP(2), OMIP(2,2,2,2)",
    "experiments": "  abrupt-4xCO2 (CMIP:2,GeoMIP:2,OMIP:2), 1pctCO2 (CMIP:2,OMIP:2), historical (AerChemMIP:2,CMIP:2,GeoMIP:2,LUMIP:2,OMIP:2), piControl (AerChemMIP:2,CMIP:2,GeoMIP:2,OMIP:2)"
  },
  "pop": {
    "CCCma TS var name": null,
    "CCCma diag file": null,
    "CCCma hist file": "N/A",
    "CCCma check": "Do not provide, JRC",
    "priority": 2.0,
    "MIPs (requesting)": "  AerChemMIP(2,2), CMIP(2,2,2,2), GeoMIP(2,2,2), LUMIP(2), OMIP(2,2,2,2)",
    "experiments": "  abrupt-4xCO2 (CMIP:2,GeoMIP:2,OMIP:2), 1pctCO2 (CMIP:2,OMIP:2), historical (AerChemMIP:2,CMIP:2,GeoMIP:2,LUMIP:2,OMIP:2), piControl (AerChemMIP:2,CMIP:2,GeoMIP:2,OMIP:2)"
  },
  "pp": {
    "CCCma TS var name": "PPPHY PPPHY2",
    "CCCma diag file": "1y_diad_t",
    "CCCma optional deck": "sum2files",
    "CCCma units": "mol m-3 s-1",
    "CCCma hist file": "1m_diad_t",
    "MIPs (requesting)": "  AerChemMIP(2,2), CMIP(2,2,2,2), GeoMIP(2,2,2), LUMIP(2), OMIP(2,2,2,2), PMIP(3,3,3,3), VIACSAB(1,1,1,1,2,2,2,2,2)",
    "experiments": "  abrupt-4xCO2 (CMIP:2,GeoMIP:2,OMIP:2,PMIP:3), amip (VIACSAB:1,VIACSAB:2), 1pctCO2 (VIACSAB:1,CMIP:2,OMIP:2,VIACSAB:2,PMIP:3), historical (VIACSAB:1,AerChemMIP:2,CMIP:2,GeoMIP:2,LUMIP:2,OMIP:2,VIACSAB:2,VIACSAB:2,PMIP:3), piControl (VIACSAB:1,AerChemMIP:2,CMIP:2,GeoMIP:2,OMIP:2,VIACSAB:2,PMIP:3)"
  },
  "ppcalc": {
    "CCCma TS var name": null,
    "CCCma diag file": null,
    "CCCma hist file": "N/A",
    "CCCma check": "Do not provide, JRC",
    "priority": 3.0,
    "MIPs (requesting)": "  AerChemMIP(3,3), CMIP(3,3,3,3), GeoMIP(3,3,3), LUMIP(3), OMIP(3,3,3,3)",
    "experiments": "  abrupt-4xCO2 (CMIP:3,GeoMIP:3,OMIP:3), 1pctCO2 (CMIP:3,OMIP:3), historical (AerChemMIP:3,CMIP:3,GeoMIP:3,LUMIP:3,OMIP:3), piControl (AerChemMIP:3,CMIP:3,GeoMIP:3,OMIP:3)"
  },
  "ppdiat": {
    "CCCma TS var name": "PPPHY2",
    "CCCma diag file": "1y_diad_t",
    "CCCma units": "mol m-3 s-1",
    "CCCma hist file": "1m_diad_t",
    "MIPs (requesting)": "  AerChemMIP(3,3), CMIP(3,3,3,3), GeoMIP(3,3,3), LUMIP(3), OMIP(3,3,3,3), VIACSAB(1,1,1,1,1,1)",
    "experiments": "  abrupt-4xCO2 (CMIP:3,GeoMIP:3,OMIP:3), amip (VIACSAB:1), 1pctCO2 (VIACSAB:1,CMIP:3,OMIP:3), historical (VIACSAB:1,VIACSAB:1,AerChemMIP:3,CMIP:3,GeoMIP:3,LUMIP:3,OMIP:3), piControl (VIACSAB:1,VIACSAB:1,AerChemMIP:3,CMIP:3,GeoMIP:3,OMIP:3)"
  },
  "ppdiaz": {
    "CCCma TS var name": null,
    "CCCma diag file": null,
    "CCCma hist file": "N/A",
    "CCCma check": "Do not provide, JRC",
    "priority": 3.0,
    "MIPs (requesting)": "  AerChemMIP(3,3), CMIP(3,3,3,3), GeoMIP(3,3,3), LUMIP(3), OMIP(3,3,3,3)",
    "experiments": "  abrupt-4xCO2 (CMIP:3,GeoMIP:3,OMIP:3), 1pctCO2 (CMIP:3,OMIP:3), historical (AerChemMIP:3,CMIP:3,GeoMIP:3,LUMIP:3,OMIP:3), piControl (AerChemMIP:3,CMIP:3,GeoMIP:3,OMIP:3)"
  },
  "ppmisc": {
    "CCCma TS var name": "PPPHY",
    "CCCma diag file": "1y_diad_t",
    "CCCma units": "mol m-3 s-1",
    "CCCma hist file": "1m_diad_t",
    "MIPs (requesting)": "  AerChemMIP(3,3), CMIP(3,3,3,3), GeoMIP(3,3,3), LUMIP(3), OMIP(3,3,3,3), VIACSAB(1,1,1,1,1)",
    "experiments": "  abrupt-4xCO2 (CMIP:3,GeoMIP:3,OMIP:3), amip (VIACSAB:1), 1pctCO2 (VIACSAB:1,CMIP:3,OMIP:3), historical (VIACSAB:1,VIACSAB:1,AerChemMIP:3,CMIP:3,GeoMIP:3,LUMIP:3,OMIP:3), piControl (VIACSAB:1,AerChemMIP:3,CMIP:3,GeoMIP:3,OMIP:3)"
  },
  "pppico": {
    "CCCma TS var name": null,
    "CCCma diag file": null,
    "CCCma hist file": "N/A",
    "CCCma check": "Do not provide, JRC",
    "priority": 3.0,
    "MIPs (requesting)": "  AerChemMIP(3,3), CMIP(3,3,3,3), GeoMIP(3,3,3), LUMIP(3), OMIP(3,3,3,3)",
    "experiments": "  abrupt-4xCO2 (CMIP:3,GeoMIP:3,OMIP:3), 1pctCO2 (CMIP:3,OMIP:3), historical (AerChemMIP:3,CMIP:3,GeoMIP:3,LUMIP:3,OMIP:3), piControl (AerChemMIP:3,CMIP:3,GeoMIP:3,OMIP:3)"
  },
  "remoc": {
    "CCCma TS var name": null,
    "CCCma diag file": null,
    "CCCma hist file": "N/A",
    "CCCma check": "Do not provide, JRC",
    "priority": 2.0,
    "MIPs (requesting)": "  AerChemMIP(2,2), C4MIP(2,2,2,2), CMIP(2,2,2,2), GeoMIP(2,2,2), LUMIP(2), OMIP(2,2,2,2)",
    "experiments": "  abrupt-4xCO2 (C4MIP:2,CMIP:2,GeoMIP:2,OMIP:2), 1pctCO2 (C4MIP:2,CMIP:2,OMIP:2), historical (AerChemMIP:2,C4MIP:2,CMIP:2,GeoMIP:2,LUMIP:2,OMIP:2), piControl (AerChemMIP:2,C4MIP:2,CMIP:2,GeoMIP:2,OMIP:2)"
  },
  "rsdoabsorb": {
    "CCCma TS var name": "rsdoabsorb",
    "CCCma diag file": "1y_grid_t",
    "CCCma units": "W m-2",
    "CCCma hist file": "1y_grid_t_ar6",
    "CCCma check": "DY",
    "CCCma comment": "1. Added by DY.",
    "MIPs (requesting)": "  AerChemMIP(3,3), CMIP(3,3,3,3), FAFMIP(1,1,1), GeoMIP(3,3,3), LUMIP(3), OMIP(3,3,3,3)",
    "experiments": "  abrupt-4xCO2 (FAFMIP:1,CMIP:3,GeoMIP:3,OMIP:3), 1pctCO2 (FAFMIP:1,CMIP:3,OMIP:3), historical (AerChemMIP:3,CMIP:3,GeoMIP:3,LUMIP:3,OMIP:3), piControl (FAFMIP:1,AerChemMIP:3,CMIP:3,GeoMIP:3,OMIP:3)"
  },
  "sf6": {
    "CCCma TS var name": "sf6",
    "CCCma diag file": "1m_ptrc_t",
    "CCCma optional deck": "meanm2y",
    "CCCma units": "mol m-3",
    "CCCma hist file": "1m_ptrc_t",
    "priority": 2.0,
    "MIPs (requesting)": "  AerChemMIP(2,2), CMIP(2,2,2,2), GeoMIP(2,2,2), LUMIP(2), OMIP(2,2,2,2)",
    "experiments": "  abrupt-4xCO2 (CMIP:2,GeoMIP:2,OMIP:2), 1pctCO2 (CMIP:2,OMIP:2), historical (AerChemMIP:2,CMIP:2,GeoMIP:2,LUMIP:2,OMIP:2), piControl (AerChemMIP:2,CMIP:2,GeoMIP:2,OMIP:2)"
  },
  "si": {
    "CCCma TS var name": null,
    "CCCma diag file": null,
    "CCCma units": "  ",
    "CCCma hist file": "N/A",
    "CCCma check": "Do not provide, JRC",
    "MIPs (requesting)": "  AerChemMIP(1,1), CMIP(1,1,1,1), GeoMIP(1,1,1), LUMIP(1), OMIP(1,1,1,1), PMIP(1,1,1,1)",
    "experiments": "  abrupt-4xCO2 (CMIP:1,GeoMIP:1,OMIP:1,PMIP:1), 1pctCO2 (CMIP:1,OMIP:1,PMIP:1), historical (AerChemMIP:1,CMIP:1,GeoMIP:1,LUMIP:1,OMIP:1,PMIP:1), piControl (AerChemMIP:1,CMIP:1,GeoMIP:1,OMIP:1,PMIP:1)"
  },
  "somint": {
    "CCCma TS var name": "somint",
    "CCCma diag file": "1m_grid_t",
    "CCCma optional deck": "meanm2y",
    "CCCma units": "kg m-2 * (1e-3)",
    "CCCma hist file": "1m_grid_t_ar6 ",
    "CCCma check": "DY",
    "CCCma comment": "1. Added by DY. 2. Post-processing: 1m-> 1y",
    "priority": 3.0,
    "MIPs (requesting)": "  AerChemMIP(3,3), CMIP(3,3,3,3), GeoMIP(3,3,3), LUMIP(3), OMIP(3,3,3,3)",
    "experiments": "  abrupt-4xCO2 (CMIP:3,GeoMIP:3,OMIP:3), 1pctCO2 (CMIP:3,OMIP:3), historical (AerChemMIP:3,CMIP:3,GeoMIP:3,LUMIP:3,OMIP:3), piControl (AerChemMIP:3,CMIP:3,GeoMIP:3,OMIP:3)"
  },
  "talk": {
    "CCCma TS var name": "TAlk",
    "CCCma diag file": "1y_ptrc_t",
    "CCCma optional deck": "mltby1em3",
    "CCCma units": "mmol m-3 ",
    "CCCma hist file": "1m_ptrc_t",
    "CCCma comment": "*0.001",
    "MIPs (requesting)": "  AerChemMIP(1,1), CDRMIP(2,2,2,2,2), CMIP(1,1,1,1), GeoMIP(1,1,1), LUMIP(1), OMIP(1,1,1,1), PMIP(1,1,1,1), VIACSAB(1,1,1,2,2,2,2,2)",
    "experiments": "  abrupt-4xCO2 (CMIP:1,GeoMIP:1,OMIP:1,PMIP:1,CDRMIP:2), amip (VIACSAB:1,CDRMIP:2,VIACSAB:2), 1pctCO2 (CMIP:1,OMIP:1,PMIP:1,VIACSAB:1,CDRMIP:2,VIACSAB:2), historical (AerChemMIP:1,CMIP:1,GeoMIP:1,LUMIP:1,OMIP:1,PMIP:1,VIACSAB:1,CDRMIP:2,VIACSAB:2,VIACSAB:2), piControl (AerChemMIP:1,CMIP:1,GeoMIP:1,OMIP:1,PMIP:1,CDRMIP:2,VIACSAB:2)"
  },
  "talknat": {
    "CCCma TS var name": null,
    "CCCma diag file": null,
    "CCCma hist file": "N/A",
    "CCCma check": "Do not provide, JRC",
    "MIPs (requesting)": "  AerChemMIP(1,1), CMIP(1,1,1,1), GeoMIP(1,1,1), LUMIP(1), OMIP(1,1,1,1)",
    "experiments": "  abrupt-4xCO2 (CMIP:1,GeoMIP:1,OMIP:1), 1pctCO2 (CMIP:1,OMIP:1), historical (AerChemMIP:1,CMIP:1,GeoMIP:1,LUMIP:1,OMIP:1), piControl (AerChemMIP:1,CMIP:1,GeoMIP:1,OMIP:1)"
  },
  "tnkebto": {
    "CCCma TS var name": " ",
    "CCCma diag file": null,
    "CCCma optional deck": " ",
    "CCCma units": " ",
    "CCCma hist file": " ",
    "CCCma check": "Do not provide, DY",
    "CCCma comment": " ",
    "priority": 2.0,
    "MIPs (requesting)": "  AerChemMIP(3,3), CMIP(3,3,3,3), FAFMIP(2,2,2), GeoMIP(3,3,3), LUMIP(3), OMIP(3,3,3,3)",
    "experiments": "  abrupt-4xCO2 (FAFMIP:2,CMIP:3,GeoMIP:3,OMIP:3), 1pctCO2 (FAFMIP:2,CMIP:3,OMIP:3), historical (AerChemMIP:3,CMIP:3,GeoMIP:3,LUMIP:3,OMIP:3), piControl (FAFMIP:2,AerChemMIP:3,CMIP:3,GeoMIP:3,OMIP:3)"
  },
  "tnpeo": {
    "CCCma TS var name": " ",
    "CCCma diag file": null,
    "CCCma optional deck": " ",
    "CCCma units": " ",
    "CCCma hist file": " ",
    "CCCma check": "Do not provide, DY",
    "CCCma comment": " ",
    "priority": 2.0,
    "MIPs (requesting)": "  AerChemMIP(3,3), CMIP(3,3,3,3), FAFMIP(2,2,2), GeoMIP(3,3,3), LUMIP(3), OMIP(3,3,3,3)",
    "experiments": "  abrupt-4xCO2 (FAFMIP:2,CMIP:3,GeoMIP:3,OMIP:3), 1pctCO2 (FAFMIP:2,CMIP:3,OMIP:3), historical (AerChemMIP:3,CMIP:3,GeoMIP:3,LUMIP:3,OMIP:3), piControl (FAFMIP:2,AerChemMIP:3,CMIP:3,GeoMIP:3,OMIP:3)"
  },
  "volcello": {
    "CCCma TS var name": null,
    "CCCma diag file": null,
    "CCCma hist file": "N/A",
    "CCCma check": "See Ofx, DY.",
    "priority": 3.0,
    "MIPs (requesting)": "  AerChemMIP(3,3), CMIP(3,3,3,3), GeoMIP(3,3,3), LUMIP(3), OMIP(3,3,3,3)",
    "experiments": "  abrupt-4xCO2 (CMIP:3,GeoMIP:3,OMIP:3), 1pctCO2 (CMIP:3,OMIP:3), historical (AerChemMIP:3,CMIP:3,GeoMIP:3,LUMIP:3,OMIP:3), piControl (AerChemMIP:3,CMIP:3,GeoMIP:3,OMIP:3)"
  },
  "zmeso": {
    "CCCma TS var name": "ZOO2",
    "CCCma diag file": "1y_ptrc_t",
    "CCCma optional deck": "mltby1em3",
    "CCCma units": "mmolC m-3 ",
    "CCCma hist file": "1m_ptrc_t",
    "MIPs (requesting)": "  AerChemMIP(3,3), C4MIP(1,1,1,1), CMIP(3,3,3,3), GeoMIP(3,3,3), LUMIP(3), OMIP(3,3,3,3), PMIP(3,3,3,3), VIACSAB(1,1,1,2,2,2,2,2,2)",
    "experiments": "  abrupt-4xCO2 (C4MIP:1,CMIP:3,GeoMIP:3,OMIP:3,PMIP:3), amip (VIACSAB:1,VIACSAB:2), 1pctCO2 (C4MIP:1,VIACSAB:1,VIACSAB:2,CMIP:3,OMIP:3,PMIP:3), historical (C4MIP:1,VIACSAB:1,VIACSAB:2,VIACSAB:2,AerChemMIP:3,CMIP:3,GeoMIP:3,LUMIP:3,OMIP:3,PMIP:3), piControl (C4MIP:1,VIACSAB:2,VIACSAB:2,AerChemMIP:3,CMIP:3,GeoMIP:3,OMIP:3,PMIP:3)"
  },
  "zmicro": {
    "CCCma TS var name": "ZOO",
    "CCCma diag file": "1y_ptrc_t",
    "CCCma optional deck": "mltby1em3",
    "CCCma units": "mmolC m-3 ",
    "CCCma hist file": "1m_ptrc_t",
    "MIPs (requesting)": "  AerChemMIP(3,3), C4MIP(1,1,1,1), CMIP(3,3,3,3), GeoMIP(3,3,3), LUMIP(3), OMIP(3,3,3,3), PMIP(3,3,3,3), VIACSAB(1,1,1,2,2,2,2,2,2)",
    "experiments": "  abrupt-4xCO2 (C4MIP:1,CMIP:3,GeoMIP:3,OMIP:3,PMIP:3), amip (VIACSAB:1,VIACSAB:2), 1pctCO2 (C4MIP:1,VIACSAB:1,VIACSAB:2,CMIP:3,OMIP:3,PMIP:3), historical (C4MIP:1,VIACSAB:1,VIACSAB:2,VIACSAB:2,AerChemMIP:3,CMIP:3,GeoMIP:3,LUMIP:3,OMIP:3,PMIP:3), piControl (C4MIP:1,VIACSAB:2,VIACSAB:2,AerChemMIP:3,CMIP:3,GeoMIP:3,OMIP:3,PMIP:3)"
  },
  "zmisc": {
    "CCCma TS var name": null,
    "CCCma diag file": null,
    "CCCma hist file": "N/A",
    "CCCma check": "Do not provide, JRC",
    "MIPs (requesting)": "  AerChemMIP(3,3), C4MIP(1,1,1,1), CMIP(3,3,3,3), GeoMIP(3,3,3), LUMIP(3), OMIP(3,3,3,3), PMIP(3,3,3,3), VIACSAB(1,1,1,1,1,1)",
    "experiments": "  abrupt-4xCO2 (C4MIP:1,CMIP:3,GeoMIP:3,OMIP:3,PMIP:3), amip (VIACSAB:1), 1pctCO2 (C4MIP:1,VIACSAB:1,CMIP:3,OMIP:3,PMIP:3), historical (C4MIP:1,VIACSAB:1,VIACSAB:1,AerChemMIP:3,CMIP:3,GeoMIP:3,LUMIP:3,OMIP:3,PMIP:3), piControl (C4MIP:1,VIACSAB:1,VIACSAB:1,AerChemMIP:3,CMIP:3,GeoMIP:3,OMIP:3,PMIP:3)"
  },
  "zooc": {
    "CCCma TS var name": "ZOO ZOO2",
    "CCCma diag file": "1y_ptrc_t",
    "CCCma optional deck": "sum2_mltby1em3",
    "CCCma units": "mmolC m-3 ",
    "CCCma hist file": "1m_ptrc_t",
    "MIPs (requesting)": "  AerChemMIP(2,2), CDRMIP(2,2,2,2,2), CMIP(2,2,2,2), GeoMIP(2,2,2), LUMIP(2), OMIP(2,2,2,2), PMIP(2,2,2,2), VIACSAB(1,1,1,1,2,2,2,2,2)",
    "experiments": "  abrupt-4xCO2 (CDRMIP:2,CMIP:2,GeoMIP:2,OMIP:2,PMIP:2), amip (VIACSAB:1,CDRMIP:2,VIACSAB:2), 1pctCO2 (VIACSAB:1,CDRMIP:2,CMIP:2,OMIP:2,PMIP:2,VIACSAB:2), historical (VIACSAB:1,AerChemMIP:2,CDRMIP:2,CMIP:2,GeoMIP:2,LUMIP:2,OMIP:2,PMIP:2,VIACSAB:2,VIACSAB:2), piControl (VIACSAB:1,AerChemMIP:2,CDRMIP:2,CMIP:2,GeoMIP:2,OMIP:2,PMIP:2,VIACSAB:2)"
  }
}