{
  "aerasymbnd": {
    "CCCma TS var name": null,
    "CCCma diag file": null,
    "MIPs (requesting)": "  RFMIP(1)",
    "experiments": "  historical (RFMIP:1)"
  },
  "aeroptbnd": {
    "CCCma TS var name": null,
    "CCCma diag file": null,
    "MIPs (requesting)": "  RFMIP(1)",
    "experiments": "  historical (RFMIP:1)"
  },
  "aerssabnd": {
    "CCCma TS var name": null,
    "CCCma diag file": null,
    "MIPs (requesting)": "  RFMIP(1)",
    "experiments": "  historical (RFMIP:1)"
  },
  "albdiffbnd": {
    "CCCma TS var name": null,
    "CCCma diag file": null,
    "MIPs (requesting)": "  RFMIP(1)",
    "experiments": "  historical (RFMIP:1)"
  },
  "albdirbnd": {
    "CCCma TS var name": null,
    "CCCma diag file": null,
    "MIPs (requesting)": "  RFMIP(1)",
    "experiments": "  historical (RFMIP:1)"
  },
  "cfadDbze94": {
    "CCCma TS var name": null,
    "CCCma diag file": null,
    "MIPs (requesting)": "  CFMIP(1)",
    "experiments": "  amip (CFMIP:1)"
  },
  "cfadLidarsr532": {
    "CCCma TS var name": null,
    "CCCma diag file": null,
    "MIPs (requesting)": "  CFMIP(1)",
    "experiments": "  amip (CFMIP:1)"
  },
  "ch4": {
    "CCCma TS var name": null,
    "CCCma diag file": null,
    "MIPs (requesting)": "  RFMIP(1)",
    "experiments": "  historical (RFMIP:1)"
  },
  "clcalipso": {
    "CCCma TS var name": null,
    "CCCma diag file": null,
    "MIPs (requesting)": "  CFMIP(1)",
    "experiments": "  amip (CFMIP:1)"
  },
  "clcalipso2": {
    "CCCma TS var name": null,
    "CCCma diag file": null,
    "MIPs (requesting)": "  CFMIP(1)",
    "experiments": "  amip (CFMIP:1)"
  },
  "clhcalipso": {
    "CCCma TS var name": null,
    "CCCma diag file": null,
    "MIPs (requesting)": "  CFMIP(1)",
    "experiments": "  amip (CFMIP:1)"
  },
  "clisccp": {
    "CCCma TS var name": null,
    "CCCma diag file": null,
    "MIPs (requesting)": "  CFMIP(1), HighResMIP(2)",
    "experiments": "  amip (CFMIP:1,HighResMIP:2)"
  },
  "cllcalipso": {
    "CCCma TS var name": null,
    "CCCma diag file": null,
    "MIPs (requesting)": "  CFMIP(1)",
    "experiments": "  amip (CFMIP:1)"
  },
  "clmcalipso": {
    "CCCma TS var name": null,
    "CCCma diag file": null,
    "MIPs (requesting)": "  CFMIP(1)",
    "experiments": "  amip (CFMIP:1)"
  },
  "clmisr": {
    "CCCma TS var name": null,
    "CCCma diag file": null,
    "MIPs (requesting)": "  CFMIP(1)",
    "experiments": "  amip (CFMIP:1)"
  },
  "cltcalipso": {
    "CCCma TS var name": null,
    "CCCma diag file": null,
    "MIPs (requesting)": "  CFMIP(1)",
    "experiments": "  amip (CFMIP:1)"
  },
  "co2": {
    "CCCma TS var name": null,
    "CCCma diag file": null,
    "MIPs (requesting)": "  RFMIP(1)",
    "experiments": "  historical (RFMIP:1)"
  },
  "hus": {
    "CCCma TS var name": null,
    "CCCma diag file": null,
    "MIPs (requesting)": "  RFMIP(1)",
    "experiments": "  historical (RFMIP:1)"
  },
  "hus7h": {
    "CCCma TS var name": null,
    "CCCma diag file": null,
    "priority": 2.0,
    "MIPs (requesting)": "  HighResMIP(2,2,2)",
    "experiments": "  piControl (HighResMIP:2), historical (HighResMIP:2), amip (HighResMIP:2)"
  },
  "jpdftaureicemodis": {
    "CCCma TS var name": null,
    "CCCma diag file": null,
    "MIPs (requesting)": "  CFMIP(1)",
    "experiments": "  amip (CFMIP:1)"
  },
  "jpdftaureliqmodis": {
    "CCCma TS var name": null,
    "CCCma diag file": null,
    "MIPs (requesting)": "  CFMIP(1)",
    "experiments": "  amip (CFMIP:1)"
  },
  "n2o": {
    "CCCma TS var name": null,
    "CCCma diag file": null,
    "MIPs (requesting)": "  RFMIP(1)",
    "experiments": "  historical (RFMIP:1)"
  },
  "o3": {
    "CCCma TS var name": null,
    "CCCma diag file": null,
    "MIPs (requesting)": "  RFMIP(1)",
    "experiments": "  historical (RFMIP:1)"
  },
  "parasolRefl": {
    "CCCma TS var name": null,
    "CCCma diag file": null,
    "MIPs (requesting)": "  CFMIP(1)",
    "experiments": "  amip (CFMIP:1)"
  },
  "ps": {
    "CCCma TS var name": "",
    "CCCma diag file": ""
  },
  "rsdcs": {
    "CCCma TS var name": null,
    "CCCma diag file": null,
    "MIPs (requesting)": "  RFMIP(1)",
    "experiments": "  historical (RFMIP:1)"
  },
  "rsdcsaf": {
    "CCCma TS var name": null,
    "CCCma diag file": null,
    "MIPs (requesting)": "  RFMIP(1)",
    "experiments": "  historical (RFMIP:1)"
  },
  "rsdcsafbnd": {
    "CCCma TS var name": null,
    "CCCma diag file": null,
    "MIPs (requesting)": "  RFMIP(1)",
    "experiments": "  historical (RFMIP:1)"
  },
  "rsdcsbnd": {
    "CCCma TS var name": null,
    "CCCma diag file": null,
    "MIPs (requesting)": "  RFMIP(1)",
    "experiments": "  historical (RFMIP:1)"
  },
  "rsdscsaf": {
    "CCCma TS var name": null,
    "CCCma diag file": null,
    "MIPs (requesting)": "  RFMIP(1)",
    "experiments": "  historical (RFMIP:1)"
  },
  "rsdscsafbnd": {
    "CCCma TS var name": null,
    "CCCma diag file": null,
    "MIPs (requesting)": "  RFMIP(1)",
    "experiments": "  historical (RFMIP:1)"
  },
  "rsdscsbnd": {
    "CCCma TS var name": null,
    "CCCma diag file": null,
    "MIPs (requesting)": "  RFMIP(1)",
    "experiments": "  historical (RFMIP:1)"
  },
  "rsucs": {
    "CCCma TS var name": null,
    "CCCma diag file": null,
    "MIPs (requesting)": "  RFMIP(1)",
    "experiments": "  historical (RFMIP:1)"
  },
  "rsucsaf": {
    "CCCma TS var name": null,
    "CCCma diag file": null,
    "MIPs (requesting)": "  RFMIP(1)",
    "experiments": "  historical (RFMIP:1)"
  },
  "rsucsafbnd": {
    "CCCma TS var name": null,
    "CCCma diag file": null,
    "MIPs (requesting)": "  RFMIP(1)",
    "experiments": "  historical (RFMIP:1)"
  },
  "rsucsbnd": {
    "CCCma TS var name": null,
    "CCCma diag file": null,
    "MIPs (requesting)": "  RFMIP(1)",
    "experiments": "  historical (RFMIP:1)"
  },
  "rsuscsaf": {
    "CCCma TS var name": null,
    "CCCma diag file": null,
    "MIPs (requesting)": "  RFMIP(1)",
    "experiments": "  historical (RFMIP:1)"
  },
  "rsuscsafbnd": {
    "CCCma TS var name": null,
    "CCCma diag file": null,
    "MIPs (requesting)": "  RFMIP(1)",
    "experiments": "  historical (RFMIP:1)"
  },
  "rsuscsbnd": {
    "CCCma TS var name": null,
    "CCCma diag file": null,
    "MIPs (requesting)": "  RFMIP(1)",
    "experiments": "  historical (RFMIP:1)"
  },
  "rsutcsaf": {
    "CCCma TS var name": null,
    "CCCma diag file": null,
    "MIPs (requesting)": "  RFMIP(1)",
    "experiments": "  historical (RFMIP:1)"
  },
  "rsutcsafbnd": {
    "CCCma TS var name": null,
    "CCCma diag file": null,
    "MIPs (requesting)": "  RFMIP(1)",
    "experiments": "  historical (RFMIP:1)"
  },
  "rsutcsbnd": {
    "CCCma TS var name": null,
    "CCCma diag file": null,
    "MIPs (requesting)": "  RFMIP(1)",
    "experiments": "  historical (RFMIP:1)"
  },
  "solbnd": {
    "CCCma TS var name": null,
    "CCCma diag file": null,
    "MIPs (requesting)": "  RFMIP(1)",
    "experiments": "  historical (RFMIP:1)"
  },
  "sza": {
    "CCCma TS var name": null,
    "CCCma diag file": null,
    "MIPs (requesting)": "  RFMIP(1)",
    "experiments": "  historical (RFMIP:1)"
  },
  "ta7h": {
    "CCCma TS var name": null,
    "CCCma diag file": null,
    "priority": 2.0,
    "MIPs (requesting)": "  HighResMIP(2,2,2)",
    "experiments": "  piControl (HighResMIP:2), historical (HighResMIP:2), amip (HighResMIP:2)"
  },
  "ua7h": {
    "CCCma TS var name": null,
    "CCCma diag file": null,
    "priority": 2.0,
    "MIPs (requesting)": "  HighResMIP(2,2,2)",
    "experiments": "  piControl (HighResMIP:2), historical (HighResMIP:2), amip (HighResMIP:2)"
  },
  "va7h": {
    "CCCma TS var name": null,
    "CCCma diag file": null,
    "priority": 2.0,
    "MIPs (requesting)": "  HighResMIP(2,2,2)",
    "experiments": "  piControl (HighResMIP:2), historical (HighResMIP:2), amip (HighResMIP:2)"
  },
  "wap7h": {
    "CCCma TS var name": null,
    "CCCma diag file": null,
    "priority": 2.0,
    "MIPs (requesting)": "  HighResMIP(2,2,2)",
    "experiments": "  piControl (HighResMIP:2), historical (HighResMIP:2), amip (HighResMIP:2)"
  }
}